<?xml version="1.0" encoding="UTF-8"?>
<svg width="375px" height="812px" viewBox="0 0 375 812" version="1.1" xmlns="http://www.w3.org/2000/svg" xmlns:xlink="http://www.w3.org/1999/xlink">
    <!-- Generator: Sketch 57.1 (83088) - https://sketch.com -->
    <title>Mobile—Success State</title>
    <desc>Created with Sketch.</desc>
    <defs>
        <filter x="-9.3%" y="-39.8%" width="118.7%" height="179.5%" filterUnits="objectBoundingBox" id="filter-1">
            <feOffset dx="0" dy="4" in="SourceAlpha" result="shadowOffsetOuter1"></feOffset>
            <feGaussianBlur stdDeviation="7" in="shadowOffsetOuter1" result="shadowBlurOuter1"></feGaussianBlur>
            <feColorMatrix values="0 0 0 0 0.650980392   0 0 0 0 0.701960784   0 0 0 0 0.760784314  0 0 0 0.3 0" type="matrix" in="shadowBlurOuter1" result="shadowMatrixOuter1"></feColorMatrix>
            <feMerge>
                <feMergeNode in="shadowMatrixOuter1"></feMergeNode>
                <feMergeNode in="SourceGraphic"></feMergeNode>
            </feMerge>
        </filter>
    </defs>
    <g id="Mobile—Success-State" stroke="none" stroke-width="1" fill="none" fill-rule="evenodd">
        <rect fill="#FFFFFF" x="0" y="0" width="375" height="812"></rect>
        <g id="bars/nav-bar/small">
            <g id="Nav-bar" filter="url(#filter-1)">
                <text id="Open-Doodles" font-family="AvenirNext-DemiBold, Avenir Next" font-size="17" font-weight="500" fill="#242833">
                    <tspan x="130.268" y="72">Open Doodles</tspan>
                </text>
                <g id="left-icon" transform="translate(20.000000, 59.000000)" fill="#2E374D">
                    <path d="M7.44080729,0.451793854 L7.53553391,0.535533906 C7.9260582,0.926058198 7.93149357,1.5537878 7.53759808,1.9476833 L3.48500038,5.9990151 L19.1081973,6 C19.6168295,6 20.0360362,6.38272018 20.0933278,6.88266744 L20.1000004,7 C20.1000004,7.55228475 19.6446948,8 19.1081973,8 L3.41300038,7.9990151 L7.50573309,12.0915195 C7.86743684,12.4532233 7.88924925,13.0145372 7.58330681,13.4059109 L7.5,13.5 L7.40530197,13.5837686 C7.04439016,13.8653349 6.54165856,13.8655756 6.1849631,13.5882472 L6.09151952,13.5057331 L0.701373694,8.11558726 C0.604931119,8.01914468 0.532652702,7.90851107 0.484308383,7.79069162 C0.279018006,7.63154988 0.138166023,7.39215231 0.106672966,7.11733256 L0.100000381,7 C0.100000381,6.65781394 0.274784306,6.35577031 0.535370332,6.17548529 C0.580026625,6.09600768 0.63648628,6.02036797 0.705042609,5.95181164 L6.12338452,0.533469734 C6.48281616,0.17403809 7.04685891,0.14485705 7.44080729,0.451793854 Z" id="Combined-Shape"></path>
                </g>
            </g>
            <g id="iPhone-X/Status-Bars/Status-Bar-(Black)">
                <rect id="Rectangle" x="0" y="0" width="375" height="44"></rect>
                <g id="Battery" transform="translate(336.000000, 17.000000)">
                    <rect id="Border" stroke="#000000" opacity="0.35" x="0.5" y="0.833333333" width="21" height="10.3333333" rx="2.66666675"></rect>
                    <path d="M23,4 L23,8 C23.8047311,7.66122348 24.328038,6.87313328 24.328038,6 C24.328038,5.12686672 23.8047311,4.33877652 23,4" id="Cap" fill="#000000" fill-rule="nonzero" opacity="0.4"></path>
                    <rect id="Capacity" fill="#000000" fill-rule="nonzero" x="2" y="2.33333333" width="18" height="7.33333333" rx="1.33333337"></rect>
                </g>
                <path d="M323.330333,19.608 C325.546226,19.6080971 327.677386,20.4595347 329.283333,21.9863333 C329.404265,22.1042079 329.597562,22.102721 329.716667,21.983 L330.872667,20.8163333 C330.932975,20.7556112 330.966599,20.6733595 330.966104,20.5877792 C330.965598,20.5021988 330.931014,20.420346 330.87,20.3603333 C326.654902,16.3207858 320.005098,16.3207858 315.79,20.3603333 C315.728941,20.4203015 315.694297,20.5021294 315.693727,20.5877099 C315.693171,20.6732903 315.726736,20.755567 315.787,20.8163333 L316.943333,21.983 C317.062362,22.1029017 317.255808,22.1043897 317.376667,21.9863333 C318.982819,20.4594344 321.114223,19.6079944 323.330333,19.608 L323.330333,19.608 Z M323.330333,23.4036667 C324.547823,23.4035921 325.721865,23.8561245 326.624333,24.6733333 C326.746397,24.7893139 326.938678,24.7867994 327.057667,24.6676667 L328.212333,23.501 C328.273141,23.439805 328.30688,23.3567887 328.30602,23.2705239 C328.305126,23.1842592 328.269706,23.101946 328.207667,23.042 C325.459468,20.4856177 321.203532,20.4856177 318.455333,23.042 C318.393256,23.1019453 318.357837,23.1842997 318.357008,23.2705923 C318.356208,23.356885 318.390065,23.4398934 318.451,23.501 L319.605333,24.6676667 C319.724322,24.7867994 319.916603,24.7893139 320.038667,24.6733333 C320.940539,23.8566645 322.113649,23.4041708 323.330333,23.4036667 L323.330333,23.4036667 Z M325.549333,26.188 C325.611087,26.127394 325.645095,26.0439919 325.643328,25.957485 C325.641561,25.8709782 325.604176,25.7890342 325.54,25.731 C324.264428,24.6521162 322.396238,24.6521162 321.120667,25.731 C321.056446,25.7889875 321.019,25.8709057 321.01717,25.957413 C321.01534,26.0439203 321.049289,26.1273487 321.111,26.188 L323.108667,28.2036667 C323.167217,28.2629057 323.247042,28.2962443 323.330333,28.2962443 C323.413624,28.2962443 323.49345,28.2629057 323.552,28.2036667 L325.549333,26.188 Z" id="Wifi" fill="#000000" fill-rule="nonzero"></path>
                <path d="M294.666667,24.3333333 L295.666667,24.3333333 C296.218951,24.3333333 296.666667,24.7810486 296.666667,25.3333333 L296.666667,27.3333333 C296.666667,27.8856181 296.218951,28.3333333 295.666667,28.3333333 L294.666667,28.3333333 C294.114382,28.3333333 293.666667,27.8856181 293.666667,27.3333333 L293.666667,25.3333333 C293.666667,24.7810486 294.114382,24.3333333 294.666667,24.3333333 L294.666667,24.3333333 Z M299.333333,22.3333333 L300.333333,22.3333333 C300.885618,22.3333333 301.333333,22.7810486 301.333333,23.3333333 L301.333333,27.3333333 C301.333333,27.8856181 300.885618,28.3333333 300.333333,28.3333333 L299.333333,28.3333333 C298.781049,28.3333333 298.333333,27.8856181 298.333333,27.3333333 L298.333333,23.3333333 C298.333333,22.7810486 298.781049,22.3333333 299.333333,22.3333333 Z M304,20 L305,20 C305.552285,20 306,20.4477153 306,21 L306,27.3333333 C306,27.8856181 305.552285,28.3333333 305,28.3333333 L304,28.3333333 C303.447715,28.3333333 303,27.8856181 303,27.3333333 L303,21 C303,20.4477153 303.447715,20 304,20 Z M308.666667,17.6666667 L309.666667,17.6666667 C310.218951,17.6666667 310.666667,18.1143819 310.666667,18.6666667 L310.666667,27.3333333 C310.666667,27.8856181 310.218951,28.3333333 309.666667,28.3333333 L308.666667,28.3333333 C308.114382,28.3333333 307.666667,27.8856181 307.666667,27.3333333 L307.666667,18.6666667 C307.666667,18.1143819 308.114382,17.6666667 308.666667,17.6666667 L308.666667,17.6666667 Z" id="Cellular-Connection" fill="#000000" fill-rule="nonzero"></path>
                <g id="Time-Style" transform="translate(21.000000, 15.000000)" fill="#000000" font-family="SFProText-Semibold, SF Pro Text" font-size="14" font-weight="500" letter-spacing="-0.280000001">
                    <text id="↳-Time">
                        <tspan x="12.3023242" y="13.5">9:4</tspan>
                        <tspan x="34.7523633" y="13.5">1</tspan>
                    </text>
                </g>
            </g>
        </g>
        <g id="Button" transform="translate(25.000000, 712.000000)">
            <g id="bg" fill="#FF5678">
                <rect x="0" y="0" width="325" height="50" rx="8"></rect>
            </g>
            <text id="Title" font-family="AvenirNext-DemiBold, Avenir Next" font-size="16" font-weight="500" fill="#FFFFFF">
                <tspan x="129.224" y="30">Continue</tspan>
            </text>
        </g>
        <text id="Well-Done!" font-family="AvenirNext-DemiBold, Avenir Next" font-size="19" font-weight="500" fill="#242833">
            <tspan x="138.619" y="588">Well Done!</tspan>
        </text>
        <path d="M160.466252,496.380465 C162.123106,496.380465 163.466252,497.723611 163.466252,499.380465 L163.465252,519.380465 L214.466252,519.380465 C216.123106,519.380465 217.466252,520.723611 217.466252,522.380465 C217.466252,524.03732 216.123106,525.380465 214.466252,525.380465 L160.466252,525.380465 C158.809398,525.380465 157.466252,524.03732 157.466252,522.380465 L157.466252,522.380465 L157.466252,499.380465 C157.466252,497.723611 158.809398,496.380465 160.466252,496.380465 Z" id="check" fill="#FF5678" transform="translate(187.466252, 510.880465) rotate(-45.000000) translate(-187.466252, -510.880465) "></path>
        <g id="character/jumping" transform="translate(187.442364, 334.000000) rotate(-12.000000) translate(-187.442364, -334.000000) translate(-0.557636, 193.000000)">
            <path d="M75.2765953,102.108638 C75.9250484,101.107318 75.9213766,101.321755 77.0849938,101.529216 C81.8591656,102.37999 86.6333375,103.23113 91.4075094,104.082271 C107.56633,106.962857 123.72515,109.843076 139.88397,112.723662 C145.581252,113.739302 151.2789,114.754943 156.975814,115.770216 C157.807861,115.918927 159.440009,115.882943 160.173283,116.340459 C160.54965,116.575459 160.830548,117.271646 161.073994,117.649115 C162.128923,119.284201 163.183853,120.919287 164.238783,122.55474 C170.160416,131.732959 176.258298,140.796248 182.302205,149.89442 L182.302205,149.89442 L202.463736,180.242466 C193.039134,180.120193 183.6149,179.997552 174.190298,179.875279 L174.190298,179.875279 L179.427861,183.290857 C191.757283,191.332263 204.087072,199.373302 216.416861,207.414341 C210.541861,211.33113 204.666861,215.247552 198.791861,219.164341 L198.791861,219.164341 L205.034048,225.773716 L205.034048,225.773716 L199.194666,229.096029 L199.194666,229.096029 L188.487845,235.188037 C187.222884,235.907724 185.957923,236.627412 184.692963,237.347099 C184.395541,237.516373 183.974377,237.870341 183.6619,237.842435 C183.192634,237.799841 182.344798,236.989091 181.963291,236.74124 C180.75708,235.95656 179.552705,235.16931 178.349798,234.37949 C174.647814,231.950177 170.959416,229.50067 167.285338,227.02913 C158.278228,220.969435 149.290947,214.837037 140.668283,208.237209 C136.684298,205.188451 132.985986,202.027701 129.873705,198.060974 C126.449314,193.696584 123.621236,188.877248 121.135009,183.927193 C119.041306,179.759982 117.187744,175.47013 115.543845,171.106474 C114.978744,169.60688 113.580127,167.205841 113.605463,165.558271 C113.619048,164.672615 114.388673,163.398474 114.686463,162.578912 C115.392931,160.636123 116.099767,158.692966 116.806236,156.750177 C117.16865,155.752896 117.880627,154.515107 118.004736,153.453201 C118.15565,152.171349 117.533634,150.417295 117.333517,149.150865 C117.23658,148.535091 117.250166,146.799763 116.782736,146.45167 C116.472095,146.219974 115.300033,146.337474 114.926236,146.308466 C111.894369,146.07567 108.862869,145.842138 105.831002,145.608974 L105.831002,145.608974 L81.4413063,143.733013 C79.2036656,143.560802 76.6895328,143.680505 74.4930172,143.198388 C72.8336969,142.834505 71.7963922,141.503818 71.3003219,139.948045 C69.8113766,135.275584 68.4035797,130.529318 67.4969938,125.705209 C66.62015,121.042662 67.4668844,117.414849 69.3788297,113.100763 C71.0524703,109.324607 73.0290406,105.579662 75.2765953,102.108638 Z M290.955923,146.828404 C289.349111,152.950888 287.103759,160.609685 282.35933,165.046045 C280.555705,166.732904 278.148423,167.834834 275.954478,168.906654 C272.727634,170.482255 269.418173,171.891521 266.087048,173.230287 C260.207275,175.593505 254.030814,178.211552 247.765861,179.358646 C246.026861,179.67663 245.141205,179.364521 243.693384,178.320974 C241.261869,176.568021 239.06315,174.462201 236.8894,172.40742 C233.404791,169.11338 230.015283,165.712857 226.698111,162.250279 C239.264002,162.219802 252.221314,161.645154 264.518423,158.945591 C273.885744,156.889341 283.29272,152.651263 290.955923,146.828404 Z" id="Accent" fill="#FF5678"></path>
            <path d="M162.673205,17.6227602 C165.701034,18.9721742 167.299034,22.7057367 168.888588,25.4056664 C170.796495,28.6457289 172.524846,32.0389086 173.499362,35.6872836 C174.498112,39.4256195 174.636541,43.5245336 174.193713,47.3601742 C173.999104,49.047768 173.542323,50.5837133 173.059838,52.1982367 C172.54394,53.924018 173.347346,54.911018 174.571182,56.1278773 C177.113588,58.6555961 180.314729,60.5950805 182.201705,63.7091977 C183.800073,66.347807 185.658776,66.8361664 188.672284,66.9492602 C196.156666,67.2301586 203.491237,66.9984633 210.906221,68.4301273 C212.788791,68.793643 214.659612,69.2386742 216.511705,69.7354789 C217.120135,69.8985102 217.756471,70.1834477 218.383627,70.2407289 C219.287643,70.3229789 219.441862,69.9635023 220.11712,69.6157758 C223.088401,68.0864398 226.859416,69.555557 229.829229,70.3945805 C237.326096,72.5128852 244.399596,75.3964086 251.194768,79.2169945 C258.532276,83.3427133 266.354471,86.5453227 273.624416,90.793682 C280.647612,94.8977367 286.956995,100.062963 293.50762,104.854026 C300.169135,109.726971 306.487698,114.999784 312.648002,120.489971 C318.602315,125.796198 324.758213,131.004385 330.084268,136.95833 C334.939955,142.386463 338.775963,148.812612 341.349213,155.641198 C342.208065,157.92033 341.679315,159.356034 338.99444,158.604034 C338.75687,160.909604 337.038065,161.873104 334.859174,161.380338 C335.52819,163.314682 337.056424,165.934932 336.182151,168.016518 C335.019268,170.78401 331.68851,168.76962 330.05526,167.69119 C330.232612,169.915979 331.178854,173.527635 329.341448,175.323182 C326.493909,178.105362 321.688159,174.559799 319.671198,172.480784 C314.532041,167.182635 311.245346,160.62687 306.682674,154.911229 C301.02762,147.827448 294.657284,141.148674 288.263815,134.735745 C287.759299,134.229393 282.068627,128.123799 281.253104,128.953643 C283.736026,133.065041 285.720307,137.590627 289.191698,141.006205 C290.839635,138.691823 292.033362,139.832307 292.342901,142.156237 C292.714495,144.949799 293.128682,147.891705 292.613518,150.69151 C291.600815,156.20226 288.12208,161.443495 284.466729,165.570315 C280.642838,169.886604 275.895104,173.173299 270.801846,175.818885 C267.918323,177.316643 265.026354,178.720034 261.924721,179.703362 C260.535651,180.143987 259.144377,180.654745 257.717487,180.960612 C256.345674,181.254729 254.862237,181.234166 253.592502,181.899877 C264.966135,187.329846 277.549651,189.617424 288.950088,194.907495 C291.701791,196.184205 297.227596,199.502846 294.435502,203.233104 C292.275705,206.119198 287.367143,206.221276 284.14544,206.797026 C286.515635,209.034299 286.162401,211.111479 283.046815,212.32944 C281.795073,212.818534 280.490455,213.045455 279.155729,213.080338 C278.24951,213.103838 276.683455,212.781448 275.951284,213.493791 C278.776057,214.788127 282.62712,214.709549 284.948846,216.983541 C287.317573,219.303432 284.488393,221.169846 282.371557,222.064682 C279.587174,223.241151 275.75851,224.482245 272.926026,223.063432 C270.687284,221.942041 268.620385,222.18512 266.144807,221.890268 C263.59212,221.586237 261.068807,221.039862 258.606448,220.30512 C249.230315,217.507518 240.596635,212.330174 232.316557,207.237284 C224.04419,202.149166 216.329213,196.368534 209.19476,189.77201 C207.43483,188.144635 205.969018,186.208088 204.170166,184.632487 C202.276948,182.974268 200.29487,182.825557 197.872901,182.853096 C192.366924,182.915518 186.871596,181.935862 181.368557,182.581745 C189.278143,188.543034 197.636432,193.793815 205.956901,199.148143 C209.122791,201.185666 212.450979,203.902487 216.173159,204.790713 C217.806041,205.180666 221.309745,205.439166 221.85208,207.452455 C222.248643,208.921573 220.992127,209.168323 220.239393,209.965487 C219.149213,211.119924 220.684057,211.505838 221.80912,211.984284 C223.22683,212.586838 224.521166,212.78108 226.065557,212.621721 C228.42951,212.377541 230.284174,212.45869 232.486932,213.471393 C235.948409,215.062049 239.664713,215.91833 243.135002,217.474104 C244.572174,218.118518 244.95001,220.038909 245.643627,221.342791 C246.734174,223.392065 247.994362,225.343299 249.231049,227.305916 C251.562323,231.005698 253.574143,234.811229 256.882135,237.762682 C259.78108,240.349151 263.009026,242.640034 266.157659,244.914026 C271.075034,248.466565 277.33044,252.858862 275.750065,259.826979 C274.187315,266.715416 267.047721,265.974799 261.607471,264.744721 C259.31769,264.226987 256.188518,262.779166 253.88001,263.459565 C251.888018,264.047065 250.516205,264.134455 248.449674,263.665557 C246.053409,263.121385 243.642088,262.767416 241.214612,262.392151 C236.12576,261.605268 230.994682,260.30726 226.132018,258.605713 C223.799643,257.789455 221.851713,256.70001 220.014674,255.032245 C219.469034,254.537276 219.072104,253.834846 218.346541,253.840721 C217.729666,253.845862 216.775346,254.940815 216.298002,255.320854 C214.791065,256.520823 213.124401,257.522877 211.404495,256.09562 C210.306604,255.18426 209.329518,253.201448 210.917237,252.262916 C212.134463,251.543229 214.357416,252.367932 215.230221,251.007135 C216.144151,249.582448 214.10112,247.515549 213.461479,246.35744 C211.530807,247.667932 208.68951,250.318659 206.450401,248.124713 C204.65669,246.367721 206.652354,245.301409 208.306534,244.739245 C210.351401,244.043791 212.717557,244.133385 211.675479,241.39894 C211.083205,239.846104 210.135862,238.454463 209.983479,236.759526 C209.867815,235.471065 210.239409,234.231073 210.248588,232.952893 C210.264745,230.668252 207.80826,228.700495 205.668291,228.15926 C204.361471,227.828424 203.973354,228.945041 203.170682,229.800955 C201.991276,231.05894 200.484338,232.000409 198.982174,232.821073 C196.517612,234.167182 193.930776,235.235698 191.347979,236.321838 C189.636518,237.041526 186.61126,237.984463 187.83326,240.165557 C189.621463,243.35862 185.430018,241.830385 183.919041,241.105924 C180.403588,239.420534 176.85362,237.811518 173.382229,236.033963 C166.26283,232.387424 159.712205,227.884604 153.423752,222.956213 C147.250596,218.117784 141.223213,212.97826 135.614424,207.491377 C132.897604,204.83294 130.300487,202.037174 127.987205,199.017791 C125.502448,195.774791 123.410213,192.258237 120.878455,189.047549 C118.251596,185.715323 115.655213,182.482604 113.962846,178.551862 C112.394955,174.909729 110.615198,170.844229 110.586924,166.842987 C110.555713,162.422416 110.573338,158.452018 112.035112,154.211737 C112.64501,152.442627 113.377549,150.60008 114.440557,149.05312 C114.746057,148.608455 116.349932,147.087932 116.021299,146.481705 C116.039659,146.515854 112.37733,147.075448 111.994354,147.111799 C109.563205,147.344229 107.11737,146.927471 104.695401,146.701284 C97.5337758,146.033002 90.3045883,146.283424 83.1694008,145.300096 C80.4793852,144.929237 77.5606117,145.318823 74.9348539,144.635487 C73.6944945,144.313096 73.3889945,143.602588 72.4776352,143.02133 C72.0616117,142.755854 71.6165805,142.843612 71.2295648,142.474955 C70.7764555,142.043143 70.6784164,141.420026 70.477932,140.85676 C69.4068461,137.849495 67.6021195,135.164252 66.541682,132.151112 C65.3494242,128.761971 65.4034008,125.249823 65.490057,121.707198 C63.7191117,121.848198 61.8589398,121.859948 60.1974164,121.143198 C58.8564477,125.357409 53.0809555,125.281401 49.5306195,124.96158 C45.0968305,124.562448 39.8981898,124.144955 37.6510023,119.69501 C35.0101898,114.465159 35.1846039,108.11612 34.8651508,102.408557 C34.4898852,95.7055492 34.3830336,88.9022992 34.7124008,82.1952523 C34.9925648,76.4906273 36.2924086,70.5689945 39.980807,66.0415727 C43.2351898,62.0469398 48.8652758,59.709057 53.2939242,63.4367445 C56.6224789,66.2391195 58.075807,71.2861117 58.2935492,75.489307 C58.4044398,77.6281742 58.3045648,79.5492992 60.9376664,78.9562914 C61.9500023,78.728268 62.8701742,78.3596117 63.6166664,79.398018 C64.2750336,80.312682 63.9728383,81.6349242 63.1393227,82.3189945 C62.384018,82.9395414 60.9145336,82.8345258 60.3971664,83.7569008 C59.8845727,84.6715648 60.6953227,86.136643 61.6669008,86.322807 C62.7732367,86.5346742 63.6251117,85.1132914 64.7391586,85.7727602 C65.7599398,86.377518 65.2267836,87.5073539 64.5427133,88.1690258 C63.733432,88.9526039 62.953893,89.1160023 63.5325805,90.3559945 C63.976143,91.3073773 64.8640023,91.9407758 65.2624008,92.9494398 C66.2457289,95.4378695 66.5703227,99.0135414 65.4768383,101.516291 C67.3744633,101.727424 71.9624711,103.972041 73.4550883,102.156299 C73.9966898,101.497565 74.0613148,100.530026 74.6466117,99.8580727 C75.3350883,99.0671508 76.2974867,98.730807 77.316432,98.603393 C79.4949555,98.3309398 81.7237836,98.9937133 83.8398852,99.4207523 C87.3479945,100.129424 90.8774008,100.749971 94.400932,101.376026 C101.490955,102.635846 108.646705,103.51269 115.719104,104.866143 C122.776448,106.217026 129.761088,107.925182 136.740588,109.626362 C140.400713,110.51826 144.043948,111.520682 147.731245,112.293245 C151.177299,113.014768 154.768393,113.546823 157.975776,115.073221 C157.341643,111.150924 155.572166,107.546612 154.469135,103.755034 C153.334526,99.8551352 153.015807,95.9622133 153.656182,91.9462836 C154.243315,88.2666977 155.112815,84.6906586 156.990245,81.4388461 C157.749221,80.1239477 158.584573,78.8141898 159.678057,77.7537523 C160.455393,76.9995492 161.549979,76.372393 162.164651,75.4731508 C162.770877,74.5856586 162.641995,74.3796664 161.550346,73.9709867 C160.943385,73.7433305 160.392237,73.6746664 159.816854,73.3559477 C159.287737,73.062932 158.832424,72.5308773 158.210409,72.4295336 C156.77544,72.195268 154.677698,73.5861742 153.363166,74.081143 C151.568721,74.7564008 149.714791,75.3644633 147.799541,75.5700883 C141.513659,76.2449789 134.059018,72.598807 129.749705,68.1815414 C128.311432,66.7072836 125.010784,63.3174086 126.35212,61.0691195 C127.060057,59.8823695 128.325752,60.1643695 129.388393,59.6253383 C131.052487,58.7811742 129.997924,57.3807211 129.20076,56.2692445 C127.029213,53.2414164 125.572948,49.776268 124.018276,46.4073227 C122.435698,42.9785258 120.266354,39.9132445 118.487698,36.5942367 C117.210987,34.2126586 115.731221,31.5487133 115.144455,28.8983539 C114.427705,25.6615961 116.618346,25.2040805 119.296612,24.7403227 C127.767627,23.2730414 136.108291,21.3016117 144.503299,19.4660414 C147.849846,18.7346039 151.212549,17.9910492 154.58076,17.3671977 C157.205784,16.8810414 160.152463,16.4999008 162.673205,17.6227602 Z M237.025737,219.545041 C232.657307,219.76976 228.262073,220.73987 228.122174,225.837166 C228.652026,235.50962 234.942315,242.739541 241.587674,249.155041 C243.264252,250.773604 244.905213,252.489471 246.726096,253.948307 C247.797549,254.806424 248.965573,255.198948 250.124784,255.878979 C250.408987,256.045682 250.899916,256.604174 251.163924,256.688995 C251.790346,256.891682 251.84469,256.664026 252.45569,256.599401 C253.787846,256.459135 254.033862,257.387385 255.046565,258.146729 C256.968057,259.587205 260.416682,259.37644 262.673049,259.826979 C264.756838,260.243002 273.051604,263.247698 272.678541,258.920026 C272.313924,254.691495 267.804127,252.63708 264.62612,250.748635 C260.196737,248.116635 255.63076,245.267627 251.901237,241.680573 C248.355674,238.269768 246.040924,233.602815 243.659713,229.35519 C242.175541,226.708135 241.764659,224.463518 241.336151,221.505455 C241.15476,220.25408 241.136401,219.844666 239.912198,219.633534 C238.965588,219.470502 237.980791,219.495838 237.025737,219.545041 Z M221.827112,218.842245 C219.303432,219.659971 217.397362,221.683909 216.141213,223.972955 C215.498268,225.144651 215.129612,226.32626 214.91701,227.636385 C214.646393,229.303784 214.023643,231.084643 214.489604,232.760854 C215.33487,235.80337 217.553049,239.124948 219.295354,241.735284 C221.254299,244.670948 223.798174,247.966088 226.889526,249.765674 C229.864846,251.498065 233.458143,251.95962 236.217557,254.097752 C235.97044,252.922018 234.867776,252.053987 234.002315,251.320713 C232.740659,250.25183 231.63726,249.190659 230.56544,247.917987 C228.194877,245.103862 226.224549,242.056205 224.961791,238.584448 C223.738323,235.220276 223.037729,231.433838 223.193784,227.847518 C223.267955,226.14083 223.561338,224.327659 224.298284,222.770784 C224.790315,221.730174 225.66312,220.845252 226.040221,219.751034 C226.903112,217.242409 223.08583,218.434299 221.827112,218.842245 Z M166.487549,135.693002 C162.964385,136.093237 159.47133,136.769963 155.922463,137.097862 C148.747987,137.760268 141.301057,138.152057 134.799635,141.579018 C125.339784,146.566159 114.44533,157.63319 117.726151,169.290659 C121.601815,183.061291 129.887401,195.513354 140.261182,205.258143 C146.883776,211.479034 154.13683,217.084885 161.412284,222.515588 C168.449432,227.76894 176.590713,231.214627 183.845604,236.12576 C184.337268,228.888862 188.884518,222.252315 194.261612,217.648151 C197.15101,215.174409 200.183612,212.804213 203.423674,210.806346 C205.015432,209.824487 206.664104,208.99501 208.342518,208.17508 C209.616659,207.553065 211.024455,206.627018 212.480721,206.55762 C212.457221,205.490573 209.780791,205.09658 209.042377,204.845424 C206.494096,203.979229 204.048627,202.651846 201.688346,201.365955 C196.549557,198.566518 191.801455,195.150205 187.046377,191.755924 C184.72208,190.096971 182.361065,188.487588 180.061737,186.793385 C177.991166,185.268088 176.155596,183.283807 173.930807,181.985065 C171.642127,180.649237 168.93669,180.370174 166.383268,179.877776 C163.315784,179.28587 160.297502,178.583073 157.21533,178.06387 C152.068463,177.19694 147.210205,174.165807 142.465409,172.100377 C140.870346,171.405659 138.43626,170.803104 137.218666,169.487838 C136.115268,168.296315 136.40351,166.456338 137.817916,165.639713 C140.250534,164.235588 144.304651,166.066752 146.604713,166.972971 C150.859682,168.649182 155.085276,170.14951 159.60058,171.008362 C165.785487,172.18483 171.663057,174.386854 177.856409,175.539455 C184.535182,176.782018 191.229745,178.14208 198.019776,178.60033 C196.356049,175.303354 193.597737,172.564135 191.449323,169.581838 C188.984393,166.160752 186.523135,162.737463 184.079502,159.300955 C179.77276,153.242729 174.969948,147.155127 171.696471,140.458729 C170.573979,138.163073 169.469479,135.354088 166.487549,135.693002 Z M198.470682,223.96708 C197.490291,224.12387 196.750041,225.10426 196.083596,225.752346 C194.02037,227.757924 192.000838,229.743674 190.320955,232.095143 C192.920276,230.997252 195.040049,229.083838 197.545737,227.826221 C198.448651,227.372745 201.637307,226.362245 200.994729,225.09912 C200.633416,224.389713 199.192205,223.851784 198.470682,223.96708 Z M210.399135,215.889323 C207.854159,217.62612 205.204901,219.178955 202.521127,220.68883 C204.40333,221.404112 206.282963,222.391112 207.827721,223.687651 C208.53419,224.280659 209.986416,226.016354 211.007932,225.580135 C211.957479,225.17476 212.473377,222.825495 212.933096,221.977659 C214.109932,219.806846 215.756401,217.756471 217.526612,216.044643 C214.867073,214.264518 213.084745,214.05669 210.399135,215.889323 Z M188.917932,121.343682 C186.881143,121.91062 184.860143,122.530065 182.824823,123.101409 C178.761159,124.24226 174.608268,125.195846 170.364682,125.195846 C169.787096,126.258487 171.441276,127.991612 171.949463,128.801995 C173.283455,130.929846 174.422471,133.211916 175.631987,135.414674 C178.196057,140.08383 180.993659,144.571963 184.011573,148.959854 C187.060698,153.393276 189.814971,158.036729 192.937534,162.416541 C195.959854,166.656088 199.28437,170.774463 202.558213,174.822338 C215.313573,190.593409 233.091323,201.469502 250.56394,211.239995 C255.461487,213.978479 260.563924,216.391268 265.987651,217.886823 C268.227127,218.504432 270.511401,219.027307 272.789432,219.487393 C274.320237,219.796198 276.867416,220.488346 278.277049,219.498041 C273.851338,217.744354 268.051979,217.067995 264.477041,213.674815 C262.264002,211.574135 264.691112,210.006979 266.947479,209.616659 C271.313705,208.861354 275.838924,210.763385 280.124737,209.529268 C278.979112,207.427487 275.686541,207.527729 273.683534,206.98833 C271.151041,206.305729 271.057041,205.02608 273.468362,204.155846 C276.435971,203.08476 279.857057,203.665651 282.949877,203.468471 C284.459385,203.372268 290.786026,203.12001 288.875182,200.22033 C287.371182,197.938995 283.709955,197.299354 281.31369,196.45776 C277.951721,195.277252 274.685955,193.434705 271.261932,192.520041 C267.912815,191.625205 264.500541,191.075526 261.151424,190.130752 C257.656166,189.144854 254.214518,188.049166 250.89294,186.569768 C244.48919,183.717455 238.552135,179.845096 233.144198,175.399924 C227.57176,170.818893 222.686698,165.569213 218.191955,159.939495 C215.826901,156.97776 213.576409,153.930104 211.275979,150.919166 C209.05376,148.011776 206.541096,145.240612 204.762073,142.031026 C202.795049,138.481057 200.245666,135.240627 198.20851,131.703143 C197.104745,129.786057 195.916893,127.90569 194.887666,125.947479 C194.156229,124.555104 193.657955,122.513541 192.668752,121.303659 C191.738666,120.166479 190.11276,121.011377 188.917932,121.343682 Z M94.8361961,166.329989 C95.5187977,166.953841 95.4053367,167.210872 95.2738836,168.003262 C95.0047352,169.626966 94.7076805,171.220559 94.5828367,172.86813 C94.1546961,178.502989 94.9492898,184.346778 95.8272352,189.912239 C96.7037117,195.465216 98.8106336,200.595559 102.057673,205.188341 C105.203735,209.638286 109.001188,213.183481 114.004118,215.367145 C114.86297,215.742044 118.264227,217.117528 118.044282,218.386528 C117.879048,219.340848 116.113243,218.801083 115.478376,218.664856 C106.485587,216.737856 98.864243,208.605755 94.3195633,201.035817 C92.4380945,197.902239 91.2278445,194.716153 90.1887039,191.252473 C90.0366883,190.746489 87.8588992,183.580091 88.5943758,183.49013 C87.9595086,178.527591 87.7696727,172.493966 90.1148992,167.900817 C90.9910086,166.185317 93.0439539,164.693434 94.8361961,166.329989 Z M79.1464578,167.397513 C78.3257937,171.13842 78.5971453,174.955334 78.7781687,178.744709 C78.8112156,179.434654 79.205575,181.562505 78.0639891,181.521748 C77.2572781,181.493107 76.6143328,179.433185 76.4164187,178.904802 C75.2175516,175.698521 74.7916141,172.087232 75.3904969,168.707638 C75.5795984,167.637654 75.8652703,166.339646 77.0417391,165.968052 C78.0650906,165.644927 79.2371531,166.222146 79.1464578,167.397513 Z M289.295245,150.126409 C288.789627,150.370588 288.566745,150.835448 288.41583,151.345838 C284.459752,154.718088 279.805651,157.982018 275.179823,160.36176 C271.047495,162.487041 266.262307,163.382979 261.752143,164.344276 C251.437479,166.542995 241.166877,167.431221 230.879385,164.585518 C235.083315,168.464487 238.895455,173.618698 244.195073,176.08987 C246.828174,177.317745 249.742541,176.577127 252.397307,175.799424 C255.654627,174.845104 258.931776,173.870221 262.08408,172.604893 C268.040229,170.214502 274.410932,167.569284 279.41937,163.471838 C281.639752,161.655362 283.44962,159.41001 285.042846,157.037612 C285.955307,155.678651 286.727502,154.225323 287.650979,152.876276 C288.183034,152.098573 289.348487,151.14058 289.295245,150.126409 Z M245.345471,81.1458305 C245.19419,83.0643852 244.064354,84.6759711 243.067807,86.2512055 C242.389979,87.3222914 241.06994,88.614057 241.695995,89.8290805 C242.439182,91.2710258 244.808643,92.1922992 246.036518,93.1785648 C247.854463,94.6388695 249.557112,96.2342992 251.23112,97.855432 C254.234713,100.764659 257.344791,103.584659 260.284127,106.55594 C263.077323,109.378877 265.787534,112.255057 269.31033,114.179854 C277.044768,118.405815 283.85426,124.310557 290.612713,129.925221 C297.503354,135.649307 304.309174,141.666409 310.288455,148.35326 C313.488127,151.931502 316.147299,155.859307 318.428268,160.075354 C319.601065,162.24433 320.858315,164.365573 322.033315,166.533815 C322.553252,167.492909 323.140385,168.424463 323.613323,169.408526 C323.964721,170.139596 324.193479,171.323409 324.842666,171.86501 C326.127823,169.013799 324.122979,165.242416 322.96083,162.67394 C322.166604,160.918416 321.387065,159.155916 320.60312,157.395252 C320.052705,156.160401 318.909284,154.66962 318.846495,153.291565 C318.693745,149.940979 323.008198,152.351565 324.191276,153.425588 C327.119963,156.084026 328.809026,160.080495 330.881799,163.378573 C331.369424,160.752815 326.141776,156.697963 328.305979,154.409284 C330.02258,152.594276 333.187002,156.846307 334.147565,157.997807 C334.806299,154.751135 333.117971,151.574963 331.353268,148.976377 C329.386979,146.080002 327.114088,143.325729 324.785018,140.717229 C319.340729,134.620815 313.118737,129.194518 306.963205,123.834682 C300.839987,118.502385 294.535745,113.387096 288.25794,108.23876 C282.161526,103.239502 275.973682,98.2406117 269.159784,94.238268 C265.339198,91.994018 261.331713,90.1165883 257.431448,88.0217836 C253.346854,85.8282055 249.474495,83.2589945 245.345471,81.1458305 Z M192.091901,73.750307 C191.913815,73.7947367 190.88312,73.9184789 190.80601,74.0091742 C190.470034,74.4050023 190.918002,75.685018 191.314198,75.9148773 C189.947159,76.9367602 188.41158,77.8668461 186.674049,78.0258383 C187.767166,79.098393 189.843979,80.9747211 189.520854,82.7045414 C189.07619,85.0842836 186.216901,83.4154164 185.058791,82.6953617 C183.200455,81.5390883 181.301362,80.312682 179.940565,78.5692758 C179.076573,77.4629398 178.782455,76.2897758 178.135838,75.0982523 C177.784807,74.4509008 177.988963,74.333768 177.21126,74.2889711 C176.322666,74.2386664 174.80251,75.0813617 173.978909,75.4162367 C172.706971,75.9339711 171.466612,76.5313852 170.270315,77.2062758 C168.063518,78.452143 165.997721,79.9638539 164.187854,81.7399398 C160.440338,85.4162211 157.902338,90.2462055 157.580682,95.534807 C160.240221,95.219393 162.842112,94.0726664 165.083057,92.6421039 C166.679221,91.6235258 168.30733,90.4264945 168.588963,93.3008383 C168.698385,94.420393 168.385174,97.0274242 167.713221,97.8936195 C167.085698,98.7025336 166.814713,98.0467367 166.163323,98.5317914 C165.410221,99.0935883 165.807885,99.9021352 165.807885,100.690854 C165.444737,100.386088 165.081955,100.08169 164.719541,99.7769242 C164.06301,100.634674 164.80583,100.175323 165.053682,100.694159 C165.198354,100.996721 164.209151,101.86769 164.011604,102.021909 C163.602924,102.341362 163.377104,102.076987 162.909674,102.535971 C162.609315,102.83119 162.285455,103.493596 161.95976,103.862252 C160.276205,105.767221 162.505401,108.752455 163.387018,110.772354 C164.03951,112.268276 164.751487,113.734455 165.430416,115.217526 C165.927588,116.302932 166.196002,117.591393 166.856205,118.591612 C168.16633,120.576995 171.168455,119.492323 173.128135,119.249245 C175.786205,118.919143 178.396541,118.58133 181.057549,118.331276 C182.617362,118.184768 184.379862,117.27708 182.376854,116.102448 C180.388901,114.936995 173.521393,114.716315 173.476963,111.718229 C173.429963,108.531041 177.858245,108.00119 180.078995,108.275112 C183.327502,108.675346 185.426713,109.495276 187.648932,111.946987 C187.151026,107.271588 183.833854,103.404737 183.093604,98.7139164 C182.892385,97.4397758 182.274409,89.5863695 185.336385,92.979182 C186.976245,94.796393 188.274987,97.5466273 189.487073,99.6480414 C191.321541,102.829354 192.920276,106.135143 194.604565,109.396135 C196.211377,112.508416 198.565416,115.498791 199.690846,118.809721 C200.324245,120.672096 201.208065,124.586315 203.218049,125.536596 C204.505776,126.14576 206.679893,125.348596 208.009846,125.154354 C208.831612,125.034284 209.633182,124.916784 210.338182,124.442377 C210.703166,124.196729 211.063745,123.560026 211.524565,123.488791 C212.852315,123.283534 213.194901,125.311877 213.104573,126.245635 C212.965041,127.685745 212.303737,128.059174 210.960565,128.226612 C213.224643,129.335885 209.736362,132.805807 209.12426,134.18937 C209.092315,134.118502 208.695018,133.14619 208.399799,133.147291 C207.813034,133.149127 210.197549,137.84362 210.377471,138.170049 C211.628112,140.435963 213.198573,142.47312 214.717627,144.561682 C215.590799,145.762018 216.847315,148.601479 218.623401,148.333065 C219.607096,148.184721 221.650862,146.159315 222.423791,147.548018 C223.12108,148.800495 220.967159,150.144034 220.642932,151.139846 C220.099127,152.810182 222.145096,154.56644 223.350573,155.442182 C226.545838,157.763174 230.688815,158.311018 234.470112,159.011612 C233.747487,158.037463 232.173721,157.506877 232.14251,156.111932 C232.121213,155.163487 232.791698,154.645752 232.338588,153.613588 C231.965526,152.763549 231.030299,152.269682 230.751971,151.35869 C230.445002,150.354065 230.928955,149.212846 231.481205,148.383002 C233.821291,144.864979 239.048573,146.328955 242.113854,147.927323 C241.887666,148.026904 241.699784,148.1709 241.55077,148.359123 L241.514715,148.406971 L241.522865,148.401324 C241.916077,148.160468 243.621287,148.915347 243.83376,149.068541 C244.505346,149.552495 245.411198,150.680495 245.874955,151.379252 C247.36794,153.62901 247.581643,156.371166 246.806143,158.921284 C256.153635,158.921284 264.959526,156.429916 273.324791,152.458784 C275.235268,151.552198 277.111963,150.971674 278.92183,149.830455 C280.781268,148.65876 282.547807,147.357815 284.37383,146.138018 C286.088963,144.992026 285.93401,144.303916 284.78508,142.674705 C283.386096,140.691893 282.153815,138.577995 280.600979,136.707909 C280.362674,137.22601 280.269409,138.26258 279.759752,138.580932 C279.196487,138.932698 278.679487,138.23394 278.299815,138.498315 C278.333596,138.474815 277.133627,140.339026 276.940487,139.874901 C277.440596,141.075971 275.43869,140.308549 275.083987,140.086034 C275.166604,141.21183 274.23101,142.180838 273.705565,140.676104 C272.278307,141.98219 268.89394,140.786627 270.719229,138.772604 C271.620307,137.77826 272.601065,137.249877 273.167635,135.95187 C273.801768,134.499276 274.023182,132.85501 274.102862,131.284549 C274.290862,127.582198 272.287487,125.853479 269.775924,123.452807 C268.373635,122.112205 266.909291,120.839901 265.466612,119.543729 C264.198346,118.404713 263.10119,116.993979 261.770502,115.937948 C260.814713,115.179705 260.052065,114.961596 259.124549,115.619963 C258.742307,115.891315 258.61783,116.236104 258.126901,116.497541 C257.497541,116.832784 256.564151,117.040245 255.862088,117.127635 C252.332682,117.567159 248.247721,116.357276 245.013534,115.05376 C244.127877,114.696854 243.703776,114.115963 242.937088,113.674237 C242.452401,113.394807 242.039315,113.56408 241.524885,113.230307 C240.180245,112.358237 240.247807,110.958518 241.22526,109.868705 C243.515409,107.314916 246.805041,109.612041 249.145495,107.549916 C252.061698,104.980338 247.199768,101.427432 245.235682,99.854768 C243.663752,98.595682 242.313237,98.3232289 240.392112,97.9927602 C239.989674,97.9233617 237.320955,97.1530023 238.254713,98.2604398 C236.181205,98.2068305 235.161526,98.2152758 233.492291,99.5096117 C233.054237,99.848893 232.471877,100.169815 232.35144,100.74887 C232.287916,101.05437 232.917276,101.11569 232.918745,101.112752 C232.833924,101.31801 232.200526,101.690705 232.109096,101.756065 C233.176851,101.882725 232.899636,103.978849 232.624143,103.990604 L232.608215,103.988666 L232.639336,104.015756 C233.105624,104.457218 232.053506,105.137187 231.696745,105.251323 C230.683674,105.575549 229.722377,104.870916 229.044916,104.167018 C227.528432,102.591416 226.427237,99.9109477 226.524541,97.7269164 C226.660768,94.6616352 228.67369,92.8844477 230.334112,90.5865883 C231.577041,88.8674164 229.730455,87.9531195 228.445299,86.8743227 C226.872268,85.555018 224.733034,83.9327836 224.215666,81.8310023 C223.744565,79.9164867 225.050651,79.2614242 226.724291,79.8371742 C228.986166,80.6148773 230.816596,82.6164164 232.821073,83.868893 C234.600096,84.9803695 236.845815,87.2499555 239.019565,87.3795727 C238.620799,85.960393 236.645698,86.1109398 235.88158,85.0567445 C234.872549,83.6640023 236.440073,83.0430883 237.626088,83.2028148 C238.546627,83.326557 241.17312,85.2755883 241.104823,83.0284008 C241.068104,81.824393 239.059955,81.4212211 238.185682,81.0731273 C233.74308,79.3047523 229.192526,78.0985414 224.481143,77.2793461 C222.95401,77.0142367 222.563323,77.2000336 221.825276,78.5788227 C221.574854,79.0469867 220.67451,81.2009086 220.18101,79.7729164 C219.535495,80.943143 219.347495,82.1901117 217.944104,82.6608461 C216.158104,83.2593617 213.86208,82.3733383 212.216713,81.6863305 C210.80451,81.0966273 209.46244,80.2697211 208.556221,79.0087992 C208.105315,78.3820102 207.776682,77.6861898 207.563713,76.9444711 C207.383057,76.3147445 207.468612,75.2825805 207.141815,74.7105023 C206.595807,73.7539789 205.294127,73.9603383 204.289135,73.8648695 C202.04562,73.6515336 199.830377,73.4587602 197.575112,73.4323227 C195.701354,73.4106586 193.912416,73.2968305 192.091901,73.750307 Z M240.868721,157.795854 C240.151237,158.052885 241.425745,158.911737 241.846909,158.810393 C241.67433,158.532065 241.387924,157.610057 240.868721,157.795854 Z M241.514715,148.406971 L241.495253,148.421842 C241.470323,148.444378 241.453582,148.473049 241.446307,148.50858 C241.4625,148.48229 241.479302,148.45669 241.496713,148.43178 L241.514715,148.406971 Z M255.866568,125.849697 C256.51649,126.395338 256.254318,127.65883 256.698982,128.435064 C257.889037,130.513345 260.033779,132.563353 262.054779,133.818767 C264.231466,135.170384 265.261427,136.924439 265.794584,139.372845 C265.905107,139.87883 266.237779,140.581259 266.075482,141.105236 C265.923466,141.594697 265.373787,141.757361 265.20488,142.19358 C265.127404,142.392963 265.451263,143.936252 265.411974,143.941025 C265.224341,143.963791 264.676498,143.187189 264.679802,143.191228 C264.462667,143.729652 264.538169,144.341405 263.953136,144.62955 L263.881941,144.661291 L263.891092,144.668071 C264.036957,144.781029 264.702201,145.333324 264.543576,145.454572 C264.322162,145.623478 263.780927,145.507814 263.504802,145.60622 C263.068951,145.761908 262.754638,146.150025 262.33531,146.330681 C261.210615,146.815002 259.913709,146.665556 258.726591,146.494814 C256.226045,146.135705 253.412287,145.241236 251.604623,143.388775 C249.415084,141.144892 249.934654,138.819861 249.737107,136.302791 C249.515326,133.479119 251.552115,129.198814 253.188302,127.009642 C253.746427,126.262048 254.86488,125.009939 255.866568,125.849697 Z M75.9985961,103.880245 C75.8572289,104.214385 75.9982289,104.735791 75.9152445,105.102612 C75.747807,105.845799 75.3167289,106.496455 74.901807,107.120307 C74.1252055,108.287963 73.3438305,109.357948 72.8139789,110.675416 C71.5130336,113.909237 70.3064555,117.39458 69.6833383,120.823377 C68.3467758,128.184752 72.8092055,134.256198 73.0522836,141.425901 C75.101557,139.268307 78.2178773,139.165127 80.9945492,139.158885 C84.689557,139.150807 88.3504164,139.306127 92.0314711,139.62962 C99.073393,140.248698 106.272104,140.499854 112.946104,143.073838 C113.680846,143.357307 114.231995,143.479948 114.969674,143.634534 C115.780057,143.804541 115.350815,143.425237 115.943455,143.904784 C116.102815,144.034034 116.166338,144.499995 116.333041,144.663393 C117.195198,145.506823 117.711463,144.933643 118.441799,144.028893 C120.451049,141.53826 122.455893,139.274916 125.040893,137.339471 C130.547604,133.215588 136.71562,131.311354 143.503815,130.698151 C147.394534,130.346752 151.193455,130.144065 155.101065,130.181885 C158.832057,130.21787 162.771245,130.286166 166.305791,131.62126 C165.426745,129.105291 163.925315,126.85076 162.714698,124.490479 C162.12683,123.344487 161.581557,122.139745 160.833963,121.085182 C160.177065,120.158034 159.185291,119.400526 158.730346,118.341924 C158.649198,118.554526 158.568049,118.767127 158.486534,118.979362 C151.30912,116.923479 143.907721,115.816041 136.548916,114.640307 C129.157065,113.459065 121.85701,111.822143 114.480948,110.563057 C110.777495,109.93076 107.060455,109.550721 103.330198,109.126987 C99.7394711,108.719409 96.2776273,107.922245 92.7372055,107.244784 C89.1516195,106.55851 85.6618695,105.727198 82.1361352,104.782057 C80.6578383,104.385862 79.2584867,103.83912 77.8198461,103.362143 C76.6723852,102.982104 76.411682,102.900588 75.9985961,103.880245 Z M234.717927,116.931447 C234.932364,117.811595 234.247192,118.946939 234.027614,119.782658 C233.778661,120.730369 233.238528,121.110041 232.956895,121.97183 C232.712348,122.720525 233.153341,126.689822 231.239192,125.504541 C231.297942,125.789478 231.612989,126.180166 231.645302,126.434259 C231.686427,126.750408 231.378723,127.234361 231.46795,127.507181 C231.548364,127.75283 232.389223,128.47215 232.593012,128.882298 C233.396786,130.493517 233.964825,132.348181 234.36102,134.103337 C234.773739,135.933033 235.275317,138.468095 233.759934,139.73122 C233.395684,140.034517 233.078434,140.116033 232.704637,140.48065 C232.660942,140.817728 232.507091,141.096423 232.243083,141.316369 C232.098411,141.357127 231.982012,141.321142 231.894989,141.208416 C231.433067,141.458837 231.586919,140.406845 231.044216,141.429095 C230.91313,141.675845 231.149598,142.522212 231.032466,142.435189 C230.819497,142.2784 230.177286,141.608283 229.969091,141.595798 C229.50313,142.229931 229.513778,141.584048 229.021747,141.674377 C229.002286,141.937283 228.859817,142.081955 228.593973,142.108025 C228.386512,142.060658 228.179419,142.012556 227.972325,141.964822 C226.719114,141.972166 224.868122,141.446353 223.664848,141.114048 C221.368091,140.479916 219.729333,138.899541 219.231059,136.505111 C218.193387,131.517236 222.388505,125.282025 225.387692,121.655314 C226.412145,120.416423 233.607184,112.37465 234.717927,116.931447 Z M254.747748,133.000306 C254.715435,133.419267 254.845052,134.045322 254.374318,134.091588 C254.395615,133.619017 254.196966,133.013525 254.747748,133.000306 Z M222.06795,132.290166 C222.28202,133.497845 222.331223,132.808267 221.845434,133.638845 C221.682036,133.149752 221.756208,132.700314 222.06795,132.290166 Z M256.844388,130.732923 C257.03092,130.964986 257.745099,131.591408 257.13006,131.751869 C256.59213,131.891767 256.821623,131.018963 256.844388,130.732923 Z M230.968942,122.361048 C230.724395,123.660525 231.461341,123.349517 232.475145,123.113416 C231.9732,122.862627 231.470888,122.611837 230.968942,122.361048 Z M43.0604086,69.9377992 C38.2039867,74.1050102 38.0574789,81.3918461 38.2105961,87.2572992 C38.4187914,95.2271039 38.9023773,103.21894 39.6727367,111.153495 C40.0208305,114.738713 41.0434477,116.56437 44.5824008,117.765807 C48.4162055,119.06712 52.5455961,118.815229 56.5222367,118.584268 C55.7617914,112.672182 54.2735805,104.894049 60.2040258,100.959268 C60.7467289,100.599424 61.2431664,100.33358 61.9037367,100.299432 C62.3399555,100.277034 62.965643,100.672495 63.3798305,100.470174 C64.2173852,100.06076 63.7382055,98.901182 63.4639164,98.245018 C62.6300336,96.2504555 61.038643,94.6542914 59.7476117,92.9619242 C58.1261117,90.8373773 56.7330023,90.8946586 54.311768,91.1568305 C53.346432,91.2618461 49.5489789,91.694393 50.2965727,89.6333695 C50.839643,88.1348773 53.8230414,88.510143 55.0318227,88.1631508 C55.9479555,87.8998773 56.1348539,87.7838461 56.0955648,86.847518 C56.0335102,85.3842758 55.1944867,84.9869789 53.892807,85.0270023 C52.218432,85.0780414 49.3194867,85.9681039 47.9252758,84.6513695 C45.9343852,82.7706352 48.8869398,81.4539008 50.3839633,81.1983383 C51.9511195,80.9310258 54.0470258,81.1744711 54.4087055,79.2346195 C54.7531273,77.3843617 53.777143,75.1452523 53.0144945,73.5160414 C52.2764477,71.9400727 51.2677836,69.931557 49.7277992,68.9853148 C47.5547836,67.6505883 44.8739477,68.3812914 43.0604086,69.9377992 Z M61.9096117,104.753784 C59.9370805,105.196245 58.8021039,107.764721 58.5729789,109.560635 C58.3515648,111.297799 58.5024789,113.777049 59.7762523,115.112143 C61.448057,116.863995 64.3624242,116.746127 66.161643,118.390393 C66.958807,114.43358 68.4326977,110.625846 70.3688773,107.090198 C68.8399086,106.669034 67.3498617,106.124495 65.8421898,105.635768 C64.7391586,105.278495 63.0941586,104.48794 61.9096117,104.753784 Z M188.527612,113.278041 C188.970073,113.656245 189.109971,113.771174 189.224166,114.364916 C188.17401,114.431377 188.490159,114.093932 188.527612,113.278041 Z M198.943436,85.1332664 C200.584764,85.1758602 201.352186,85.7071805 202.669287,86.4936961 C203.607819,87.0543914 204.746467,86.4511023 204.746467,87.8754227 C207.425834,85.7696023 212.422522,91.2069148 214.300686,92.6312352 C216.28203,94.1333992 218.232897,95.9017742 218.452108,98.5826102 C218.5171,99.3764695 218.3526,100.190157 218.471936,100.980712 C218.561897,101.57629 218.938998,102.171501 218.874741,102.78911 C218.7991,103.505126 218.193608,103.92372 218.054077,104.596774 C217.998998,104.863352 218.187733,105.398712 218.0706,105.614251 C216.86953,107.816274 215.33028,109.622837 212.694975,109.840579 C210.399686,110.030415 207.863889,109.21122 206.190983,107.609548 C204.706811,106.188899 203.821889,104.059946 203.437444,102.069055 C203.370616,101.724634 203.497295,100.935548 203.383834,100.644368 C203.218967,100.219899 202.970748,100.212555 202.766225,99.8692352 C202.223889,98.9586102 201.445452,97.2423758 202.14935,96.2417898 C200.414022,96.6335789 199.095084,92.9154383 198.447366,91.8311336 C197.961577,91.019282 196.790983,90.3836805 196.466022,89.5938602 C196.020256,88.510657 197.621928,88.0457977 197.067108,87.2912273 C196.770053,86.8873211 195.175725,87.1623445 195.332147,86.1503758 C195.477553,85.2144148 198.316647,85.116743 198.943436,85.1332664 Z M232.560002,103.952948 C232.575705,103.972956 232.591778,103.984652 232.607949,103.98886 L232.608215,103.988666 L232.602475,103.983891 L232.560002,103.952948 Z M227.978604,95.8454477 C228.129151,95.7161977 228.935495,94.8999398 229.030229,95.5120414 C229.107705,96.0136195 228.219846,95.8454477 227.978604,95.8454477 Z M152.731971,32.2603227 C150.981955,32.3671742 149.422143,34.2563539 148.118627,35.2481273 C146.172166,36.7286273 143.872104,37.8155023 141.578284,38.637268 C138.908096,39.593057 136.16337,40.4438305 133.421948,41.1690258 C130.641237,41.9048695 127.744862,42.0554164 124.972963,42.8199008 C126.344409,45.3299945 127.716221,47.8404555 129.088034,50.3509164 C129.689487,49.5229086 129.483862,48.5880492 130.473799,47.9928383 C131.160807,47.5797523 132.155151,47.5232055 132.931752,47.3704555 C135.093752,46.9448852 137.466151,46.5681508 139.66083,47.0084086 C141.076705,47.2926117 142.652307,48.3827914 141.311338,49.9051508 C140.464971,50.8657133 138.643354,50.6189633 138.494643,52.1446273 C138.352174,53.6064008 139.844791,54.862182 139.499268,56.3992289 C139.013479,58.5597602 136.854784,57.9127758 135.894955,56.5159945 C135.039041,55.2704945 135.363635,53.0556195 134.042127,52.1574789 C133.253776,51.6217523 131.146487,51.4286117 130.297549,51.8872289 C131.857729,54.7667133 134.889963,58.3170492 133.111307,61.759432 C132.564565,62.816932 131.370471,63.2201039 132.17094,64.2592445 C133.094049,65.4577445 135.757627,66.4451117 137.175705,66.0782914 C138.503455,65.7349711 140.024713,64.2390492 141.518065,64.9792992 C142.928065,65.678057 141.928948,66.8644398 142.053424,67.9619633 C142.42869,71.2677523 149.20844,69.3822445 151.049151,68.9434555 C152.895737,68.5035648 154.82237,67.4390883 156.72844,67.395393 C158.52619,67.3539008 160.195424,68.2204633 161.619745,69.2353695 C162.686424,69.9954477 164.461409,72.2191352 165.814495,72.293307 C167.172354,72.3678461 169.096784,70.3578617 170.294916,69.749432 C172.444432,68.6574164 174.794065,68.3416352 177.072096,67.6138695 C177.433776,67.4985727 179.013784,67.1736117 179.042638,66.6459633 C179.069229,66.1388773 177.201713,65.0296039 176.884463,64.7872602 C173.986252,62.5742211 171.863541,59.5232602 168.848565,57.4508539 C167.504291,56.526643 166.052065,55.8752523 164.481604,55.4592289 C163.609901,55.2286352 161.236401,54.9176273 161.173979,53.6746977 C165.355877,52.9741039 165.460159,47.7567367 163.696557,44.798307 C162.574799,42.9168383 160.834698,42.0220023 158.636713,42.426643 C155.451729,43.0134086 154.86937,45.344682 154.140135,48.1110727 C151.53751,46.6951977 148.700252,43.2278461 148.545666,40.1724789 C148.37419,36.7756273 152.021463,35.3149555 152.731971,32.2603227 Z M230.4269,55.0891773 C234.814791,55.903232 239.106845,56.9882711 243.332439,58.4302164 C245.935064,59.318443 249.721869,60.082193 251.972728,61.7484898 C252.629627,62.2353805 253.457267,63.3060992 252.85765,64.1616461 C252.341017,64.8993258 251.076056,64.7006773 250.328462,64.5857477 C246.931244,64.0632398 243.603056,62.6414898 240.242189,61.8748023 C231.309619,59.8376461 222.14572,58.8803883 213.019642,58.2282633 C210.502939,58.0487086 207.9844,57.8933883 205.467697,57.7164039 C203.371791,57.5695289 201.068423,57.6359898 199.016212,57.1615836 C197.39765,56.7874195 196.994478,55.5980992 198.206564,54.2589664 C199.388173,52.953982 201.370252,53.1574039 202.953197,52.9190992 C212.163728,52.3176461 221.380869,53.4107633 230.4269,55.0891773 Z M215.161814,44.4301281 C218.147783,45.4589875 214.658033,45.94955 213.351947,45.8415969 C212.909119,45.8052453 207.068634,45.2258234 207.068634,45.4053781 C205.902814,45.4053781 202.818806,46.2969094 201.981619,45.1182375 C201.082377,43.8525422 204.93197,43.4082453 205.710041,43.3520656 C208.701517,43.1365266 212.286369,43.4398234 215.161814,44.4301281 Z" id="Ink" fill="#000000"></path>
        </g>
        <g id="iPhone-X/Home-Indicator/Home-Indicator---On-Light" transform="translate(121.000000, 798.000000)" fill="#D3D7E0">
            <rect id="yo" x="0" y="0" width="134" height="5" rx="2.5"></rect>
        </g>
    </g>
</svg>