<?xml version="1.0" encoding="UTF-8"?>
<svg width="3871px" height="2367px" viewBox="0 0 3871 2367" version="1.1" xmlns="http://www.w3.org/2000/svg" xmlns:xlink="http://www.w3.org/1999/xlink">
    <!-- Generator: Sketch 58 (84663) - https://sketch.com -->
    <title>composition-21</title>
    <desc>Created with Sketch.</desc>
    <g id="composition-21" stroke="none" stroke-width="1" fill="none" fill-rule="evenodd">
        <rect fill="#E4B1BF" x="0" y="0" width="3871" height="2367"></rect>
        <circle id="Oval" fill-opacity="0.5" fill="#FFFFFF" cx="1936" cy="1587" r="1332"></circle>
        <g id="Illustrations/bikini" transform="translate(-916.000000, 287.000000)">
            <path d="M3116.71291,2207.86735 C3096.6785,2241.84435 3076.64989,2275.81555 3056.62129,2309.79255 C2994.84078,2414.55497 2933.07189,2519.31738 2871.29719,2624.0798 C2857.12453,2648.12363 2850.42124,2672.09204 2841.85496,2698.9963 C2826.14432,2748.35462 2810.43367,2797.70714 2794.72883,2847.06547 C2771.32246,2835.01454 2747.9161,2822.96361 2724.51554,2810.90688 C2702.05517,2799.33753 2661.64974,2787.80299 2644.02967,2769.4568 C2628.48734,2753.27479 2620.81483,2715.27114 2612.34141,2694.71436 C2587.74528,2635.06894 2563.14916,2575.42353 2538.54723,2515.77811 C2501.2758,2425.40486 2464.00436,2335.03161 2426.74454,2244.65836 C2538.6691,2255.38641 2650.59947,2266.12027 2762.52984,2276.84832 C2880.58893,2253.85466 2998.65382,2230.86101 3116.71291,2207.86735 Z M2932.72076,1255.9735 L2947.28808,1360.79394 C2950.57878,1384.51865 2948.81445,1410.92974 2963.49204,1429.61245 C2999.05718,1474.8861 3058.26664,1506.21155 3073.0661,1563.30405 C3078.21399,1583.13557 3083.36189,1602.97289 3088.50397,1622.81022 C3090.47723,1630.43415 3100.76141,1652.23838 3098.05688,1659.65345 C3093.5532,1672.00028 3050.33297,1687.927 3039.1318,1693.86833 C2996.65444,1716.38041 2952.71455,1738.21946 2906.60407,1752.2721 C2858.74666,1766.85274 2820.14618,1760.92881 2776.83309,1735.03411 C2749.21323,1718.52138 2701.51833,1690.50893 2685.31437,1661.16199 C2674.15383,1640.95913 2674.76322,1605.36915 2670.53232,1582.46833 L2670.53232,1582.46833 L2552.39778,1582.46833 C2528.3414,1582.46833 2487.66899,1574.39763 2468.4355,1587.82946 C2456.83388,1595.92916 2447.06043,1613.16135 2437.54815,1623.65732 C2422.27278,1640.51237 2406.43445,1656.89165 2389.90548,1672.52827 C2354.86848,1705.69878 2315.06663,1739.84404 2269.1999,1756.82674 C2213.75705,1777.35451 2161.57589,1748.55877 2118.2686,1713.58961 C2098.49535,1697.61648 2052.95363,1661.56813 2050.57992,1634.24612 C2048.12495,1606.08281 2072.9184,1572.74404 2092.50012,1555.72073 C2127.78088,1525.06252 2169.66046,1501.35521 2210.19938,1478.46599 C2273.17545,1442.91082 2338.02611,1410.34373 2403.74153,1380.13228 C2414.08955,1407.04234 2424.44337,1433.9466 2434.79719,1460.85086 C2442.14469,1479.96873 2449.50379,1499.08659 2456.8629,1518.19865 C2460.52504,1527.73148 2463.97825,1548.20123 2471.19806,1555.47704 C2479.64246,1563.9887 2501.55147,1559.48048 2514.68527,1559.48048 L2514.68527,1559.48048 L2625.59999,1559.48048 C2639.52309,1559.48048 2671.62922,1565.71772 2684.4206,1559.37024 C2694.44361,1554.39205 2705.372,1533.77145 2712.29002,1525.30621 C2785.765,1435.53057 2859.24578,1345.75494 2932.72076,1255.9735 L2932.72076,1255.9735 Z" id="Accent" fill="#FF5678"></path>
            <g id="Ink" stroke-width="1" transform="translate(423.667570, 179.861152)" fill="#000000">
                <path d="M4969.75699,1843.44077 C4957.49955,1826.40005 4943.8144,1819.87851 4938.54463,1844.67661 C4932.76994,1871.84197 4938.82321,1906.07426 4936.47851,1934.30719 C4930.81409,2002.47007 4928.54484,2070.95786 4921.05225,2138.95828 C4907.29165,2263.83072 4898.67894,2396.66941 4851.32646,2514.38788 C4828.67458,2570.6855 4803.0628,2626.35068 4772.18126,2678.62746 C4741.34034,2730.8288 4710.60969,2787.78205 4672.66502,2835.10964 C4601.4651,2923.89892 4538.18724,3020.64866 4450.69049,3094.67164 C4429.46632,3112.62909 4410.57524,3133.15686 4387.81309,3149.28665 C4368.56798,3162.92735 4346.86791,3173.27247 4328.42952,3186.67528 C4319.34091,3193.27805 4310.38578,3198.40129 4300.81546,3204.49928 C4291.69783,3210.30136 4286.20172,3219.14374 4276.35282,3223.14137 C4266.68964,3227.06358 4254.62373,3226.03081 4244.2641,3230.35336 C4232.08211,3235.44179 4221.28141,3243.43706 4209.12844,3248.58351 C4185.10688,3258.76036 4158.36918,3261.02898 4134.08645,3271.10719 C4110.3899,3280.93012 4089.37466,3287.20798 4064.58701,3294.01962 C4036.35776,3301.77701 4007.7977,3306.17499 3979.34211,3312.96342 C3966.80609,3315.9573 3954.92009,3319.79248 3943.0457,3324.77066 C3927.7123,3331.20517 3926.42387,3330.46831 3910.28375,3328.04304 C3883.09917,3323.95837 3855.67083,3336.52568 3828.07999,3335.82363 C3814.25555,3335.47551 3801.87624,3331.79118 3787.98796,3333.36935 C3772.66616,3335.10998 3761.84224,3337.59907 3746.06775,3336.282 C3717.89073,3333.93215 3690.7758,3332.54546 3662.88316,3331.93043 C3652.1521,3331.69255 3642.37865,3328.74509 3631.64179,3329.28468 C3615.31014,3330.10858 3610.69039,3326.84201 3594.84046,3323.01263 C3583.45357,3320.26244 3570.57514,3324.0338 3559.0896,3323.42458 C3545.54954,3322.70512 3532.64209,3318.34196 3519.13105,3317.32079 C3491.16296,3315.20883 3465.71949,3311.63475 3437.75141,3307.13233 C3379.7143,3297.78517 3319.63429,3283.18713 3264.24947,3263.49486 C3237.77875,3254.08388 3215.92197,3241.95173 3192.00488,3227.9513 C3169.17308,3214.5833 3143.3988,3211.87953 3122.16302,3196.44018 C3078.59456,3164.7434 3028.93801,3138.66884 2987.96962,3103.49661 C2946.07843,3067.5353 2895.89374,3041.61159 2854.61195,3005.79533 C2835.94141,2989.59591 2814.99582,2976.26853 2796.96369,2959.38447 C2777.2775,2940.94544 2760.94586,2920.4989 2740.04089,2903.32474 C2696.37957,2867.45626 2662.15509,2819.42081 2618.55181,2782.29908 C2573.1784,2743.66881 2534.65917,2700.43749 2493.44702,2657.61811 C2476.66268,2640.17705 2459.54754,2624.26774 2439.71046,2610.45878 C2416.51883,2594.31158 2430.96426,2578.73299 2439.27518,2555.80315 C2461.53821,2494.45773 2492.21663,2443.05707 2528.84385,2389.1035 C2564.97195,2335.89259 2601.16969,2283.41275 2641.61576,2233.33497 C2675.68934,2191.14802 2712.30496,2151.86791 2748.67101,2112.60522 C2763.78968,2096.27815 2778.42663,2078.84869 2794.53193,2063.38034 C2806.97509,2051.43385 2808.66397,2052.10689 2824.17729,2055.87244 C2838.2803,2059.30148 2851.79134,2060.56633 2865.00059,2066.92541 C2890.64139,2079.27225 2912.78835,2096.49283 2941.12206,2103.11301 C2971.371,2110.17414 2997.57476,2120.97182 3027.17368,2129.88962 C3081.80982,2146.36174 3141.07732,2164.23215 3189.58473,2195.2791 C3240.62837,2227.95643 3277.54577,2279.54856 3313.97567,2326.64407 C3352.09444,2375.90376 3378.4607,2432.78158 3408.98242,2487.10068 C3440.5546,2543.27065 3469.98522,2600.27612 3504.14586,2654.96656 C3566.70987,2755.11632 3648.7105,2841.85747 3766.12538,2870.93171 C3817.47661,2883.64407 3881.67146,2899.73325 3931.74007,2874.60442 C3953.65488,2863.60948 3972.51694,2847.31723 3994.1938,2835.77688 C4019.42254,2822.34506 4045.00529,2810.7699 4066.55447,2791.55921 C4108.69522,2753.99652 4154.40525,2720.79119 4194.97318,2681.20938 C4232.38971,2644.69107 4265.05299,2603.13655 4299.99133,2564.15815 C4317.41988,2544.71537 4331.72022,2522.52821 4346.42683,2501.00828 C4353.7337,2490.30924 4358.87579,2477.91018 4366.10141,2467.42582 C4372.71183,2457.83498 4381.97455,2451.62094 4389.14794,2442.46526 C4403.48311,2424.18869 4414.39989,2401.29367 4427.53949,2381.8741 C4444.15551,2357.31968 4457.31253,2331.00143 4467.95653,2303.36031 C4490.19635,2245.57156 4498.45503,2190.48078 4503.57391,2129.19917 C4521.52478,2144.06991 4569.95095,2144.76036 4581.30301,2122.52678 C4599.70077,2086.48424 4560.38643,2080.75178 4539.88773,2064.6568 C4525.90078,2053.67926 4516.69029,2038.23411 4506.44094,2024.04222 C4499.4997,2014.42236 4480.16174,1998.77994 4477.56167,1987.11776 C4473.66158,1969.59547 4493.15044,1951.82949 4502.13459,1938.61814 C4514.71703,1920.1153 4526.38829,1900.98003 4538.70957,1882.29732 C4586.06785,1810.46173 4636.43826,1739.18893 4694.41733,1675.42404 C4720.24965,1647.01124 4747.67799,1617.34518 4779.13991,1595.20443 C4807.08477,1575.54117 4834.51311,1537.14299 4869.17868,1530.2095 C4849.67821,1560.18886 4795.93004,1622.65409 4833.45103,1660.39084 C4864.17588,1691.28693 4924.78403,1622.20153 4962.83896,1627.70771 C4941.45229,1658.27308 4904.32595,1708.37407 4932.10251,1747.50332 C4955.92094,1781.06837 4999.61128,1726.01821 5028.87939,1726.01821 C5009.16999,1765.15906 4989.46639,1804.29991 4969.75699,1843.44077 M2407.70299,2303.95792 C2389.21237,2302.71048 2368.615,2314.40748 2370.77978,2334.97586 C2372.86331,2354.88861 2396.18262,2356.42036 2398.71304,2374.04709 C2401.10997,2390.69327 2381.05815,2422.55251 2375.31828,2438.59527 C2371.79543,2448.4298 2365.85243,2487.59386 2354.26822,2491.87 C2338.30802,2497.75911 2314.43155,2466.40465 2299.12136,2480.56754 C2286.9858,2491.78297 2300.95534,2517.48039 2308.0939,2527.13506 C2319.41694,2542.44676 2343.79253,2543.97851 2350.17661,2561.06564 C2355.92228,2576.45857 2349.81097,2607.84204 2349.81097,2624.43019 C2329.44575,2613.74856 2316.20749,2608.63112 2307.33361,2586.97194 C2298.95305,2566.5254 2295.59851,2570.57526 2275.84848,2559.15096 C2259.25567,2549.54271 2249.98715,2531.68969 2238.58285,2516.91179 C2226.42408,2501.15333 2209.1,2484.9191 2205.64679,2464.43194 C2234.21266,2464.43194 2262.61602,2465.80704 2280.34055,2438.73452 C2296.18468,2414.51082 2279.86465,2396.25166 2253.40553,2399.75032 C2238.63509,2401.70562 2198.82163,2425.65662 2185.70524,2417.8006 C2178.29971,2413.36201 2176.80815,2397.80082 2174.24291,2390.18849 C2168.08518,2371.90612 2161.06269,2354.0299 2155.37505,2335.56187 C2149.9834,2318.01637 2145.14891,2300.30841 2140.69166,2282.50182 C2138.17285,2272.46422 2126.68731,2246.45928 2132.35173,2237.67492 C2143.28012,2220.74444 2171.54419,2236.95547 2173.16923,2204.88735 C2174.88713,2170.99158 2141.62026,2171.07281 2118.8523,2172.54654 C2089.19533,2174.46123 2074.47132,2134.02071 2059.59641,2112.73286 C2098.82949,2119.10935 2136.97729,2130.37119 2176.4077,2135.9586 C2208.42097,2140.49003 2240.42263,2125.87458 2253.3533,2162.67139 C2257.95564,2175.76089 2274.55425,2218.37139 2296.3704,2196.63679 C2309.22562,2183.83159 2293.53239,2154.96623 2287.56617,2141.70266 C2351.08199,2129.90703 2415.83399,2132.51216 2479.40204,2117.8619 C2509.6858,2110.8878 2537.60165,2097.5256 2567.19477,2088.38152 C2590.32836,2081.23335 2617.03704,2065.28923 2640.86127,2062.97419 C2635.29551,2081.6453 2611.1869,2097.00922 2598.42454,2111.00384 C2579.06336,2132.23366 2560.54372,2154.21776 2541.89059,2176.0684 C2531.96044,2159.71813 2518.96593,2129.40805 2498.70518,2123.6988 C2468.60133,2115.21615 2466.40172,2155.39558 2473.38939,2174.44382 C2478.22969,2187.64936 2486.3839,2195.13405 2495.32161,2205.18326 C2510.45189,2222.22398 2500.38825,2227.76497 2486.11113,2245.25244 C2474.1787,2259.86789 2463.77264,2274.87788 2452.74559,2290.11415 C2435.76974,2313.54877 2432.76341,2305.64633 2407.70299,2303.95792 M2080.00806,2531.44601 C2021.59951,2521.87837 1959.16899,2519.74901 1900.00597,2516.30257 C1844.65017,2513.07661 1787.62291,2512.07285 1732.11622,2513.73225 C1676.84748,2515.38004 1620.33674,2510.01311 1565.36399,2516.61588 C1514.15785,2522.76609 1462.41777,2510.70936 1410.19598,2508.51037 C1388.23473,2507.58784 1366.00652,2513.43634 1344.03948,2510.80219 C1333.01243,2509.47932 1323.29121,2505.55131 1312.00299,2505.73117 C1295.99055,2505.99227 1280.55268,2510.44247 1264.41837,2510.36704 C1206.27679,2510.08274 1141.96006,2496.18675 1084.85735,2514.15 C1060.13354,2521.92479 1036.9245,2518.41453 1011.65515,2524.47771 C987.198309,2530.34941 963.716494,2538.84947 939.480198,2545.10991 C890.003562,2557.89771 844.548898,2574.91522 797.370532,2595.82012 C705.590647,2636.48692 616.381806,2705.74059 574.94331,2799.68212 C551.426673,2852.99747 540.469267,2914.73743 549.708775,2972.42175 C558.594256,3027.91867 566.069436,3088.48082 596.051407,3137.05586 C651.923732,3227.57416 711.643917,3321.79419 805.251971,3377.33754 C851.542369,3404.8046 892.888006,3440.4468 939.027508,3467.53092 C959.241833,3479.39038 983.002226,3482.39586 1002.78127,3494.66727 C1020.25625,3505.51136 1037.88212,3517.8814 1055.02047,3529.42755 C1075.10131,3542.96961 1088.66459,3556.56969 1081.25325,3581.98862 C1073.88834,3607.2741 1054.2776,3632.65822 1038.81071,3653.59213 C1001.24329,3704.41838 963.571402,3756.35283 924.61109,3806.05348 C903.886038,3832.49357 878.222029,3853.09677 852.01247,3873.82761 C834.74643,3887.49152 807.358718,3900.61583 794.416443,3918.58488 C785.850165,3930.47915 792.26907,3938.1321 787.463597,3949.49838 C783.006347,3960.01756 772.182426,3963.64966 762.548266,3968.90055 C731.62029,3985.744 702.236102,3990.07235 669.137538,4000.01712 C681.778021,3967.26436 698.173504,3933.28736 693.019809,3897.14618 C688.788904,3867.53235 673.658629,3854.68074 646.682981,3870.39278 C618.331853,3886.90551 591.222719,3906.67901 562.60462,3922.57672 C533.835625,3938.56726 497.359302,3945.81406 465.804526,3954.61002 C480.133888,3924.88014 497.48118,3893.75197 489.506881,3859.55449 C482.136168,3827.95054 465.392462,3821.62047 439.716845,3838.95709 C384.854366,3875.99759 297.700038,3894.87177 232.895802,3878.13276 C242.773718,3844.12094 277.770095,3815.42384 300.677342,3789.86566 C327.803887,3759.59039 355.342495,3729.77929 385.109729,3702.06274 C413.211297,3675.89534 439.455678,3649.54808 465.073258,3621.04825 C469.025585,3616.65607 472.072534,3610.26217 477.812404,3607.77308 C484.004963,3605.09252 493.110986,3610.29699 498.102177,3605.84099 C507.359096,3597.58462 494.393606,3585.73097 488.810436,3578.12443 C506.546576,3573.93533 526.691257,3594.21941 543.051918,3582.68487 C569.267281,3564.18783 544.578294,3521.2176 529.123012,3505.81887 C485.403658,3462.25103 433.808667,3428.92386 393.559932,3381.18432 C350.0321,3329.54578 300.590286,3282.34583 258.803568,3229.36121 C220.748635,3181.11688 177.986893,3130.4821 154.394808,3073.33158 C128.875891,3011.53359 115.962634,2950.27519 123.27531,2883.43519 C130.762097,2814.99382 145.637008,2746.80193 159.380196,2679.39913 C171.039851,2622.23701 205.049597,2567.48855 238.403524,2520.31181 C270.347149,2475.11938 301.51888,2421.9665 340.30508,2382.45431 C359.405093,2362.99412 383.995416,2350.31077 403.699015,2331.60485 C426.194199,2310.24738 442.624504,2296.0961 470.569372,2281.79397 C497.986103,2267.77033 524.601921,2252.17433 551.943203,2237.98243 C579.127785,2223.86597 605.343148,2212.78979 633.177745,2200.51258 C656.636345,2190.16747 679.729311,2186.40772 703.7973,2176.95032 C734.957424,2164.71373 766.779171,2154.43243 799.541119,2147.39451 C856.440701,2135.17532 912.1157,2120.25816 968.77733,2108.50314 C995.625297,2102.93314 1023.66883,2103.084 1049.95384,2097.03242 C1078.26434,2090.51088 1104.78149,2089.21702 1133.46924,2084.55794 C1159.30736,2080.36304 1185.0236,2080.46748 1211.1345,2077.00363 C1226.55496,2074.9613 1242.1089,2077.43299 1257.48873,2075.57052 C1276.40883,2073.2845 1289.71674,2069.36229 1308.93863,2070.41827 C1335.17721,2071.86879 1356.04735,2057.38099 1381.24126,2061.15234 C1405.30345,2064.75543 1428.18168,2058.22809 1452.00591,2054.14923 C1464.60577,2051.99085 1474.25734,2055.60555 1486.76434,2055.97688 C1503.78082,2056.48747 1521.19195,2052.84956 1538.39415,2052.69871 C1573.57624,2052.38539 1608.99629,2050.37207 1644.16098,2051.20177 C1714.37427,2052.86116 1783.27012,2052.74512 1853.51244,2062.97419 C1870.23293,2065.41687 1886.90119,2072.66367 1903.32569,2074.61317 C1916.85414,2076.22035 1923.49358,2073.0176 1937.20195,2079.20842 C1964.16599,2091.3928 1982.51732,2124.30802 1996.57391,2149.36722 C2032.09262,2212.70856 2042.95137,2288.33872 2064.02464,2357.04699 C2085.78275,2427.98326 2114.55755,2488.14506 2155.53755,2549.51369 C2130.00703,2544.99387 2105.60823,2535.63511 2080.00806,2531.44601 M1795.99186,1753.68834 C1772.45781,1705.22354 1759.55616,1652.60444 1739.88738,1602.61369 C1760.85039,1599.41675 1783.51388,1607.9284 1804.74385,1608.59564 C1830.36143,1609.41374 1853.00751,1608.21271 1878.11437,1602.46284 C1924.67174,1591.79281 1976.96898,1572.47767 2013.9154,1541.33789 C2032.16807,1525.95657 2045.83581,1506.93154 2054.84317,1484.90103 C2060.37991,1471.34156 2063.74606,1457.49199 2066.49122,1443.20726 C2067.17605,1439.63898 2066.97293,1422.1631 2069.96184,1419.51735 C2076.65932,1413.57602 2109.76949,1412.42721 2118.99739,1413.14666 C2144.28416,1415.13098 2169.69861,1418.48458 2195.43807,1420.15558 C2215.37381,1421.45525 2235.78547,1418.59482 2243.44636,1439.7144 C2250.12063,1458.10121 2247.42191,1480.32318 2253.62607,1499.47586 C2267.14292,1541.23346 2299.99192,1583.84976 2341.12282,1601.16317 C2382.13764,1618.42437 2446.00168,1621.86501 2489.26254,1615.95268 C2542.02408,1608.74069 2580.20669,1575.09441 2619.88086,1543.57169 C2619.88086,1647.1969 2616.41024,1748.59411 2646.94937,1849.28927 C2653.82676,1871.98702 2662.18411,1894.38886 2672.79329,1915.62449 C2677.63939,1925.31977 2701.23147,1952.90287 2698.88678,1963.14935 C2696.30993,1974.38799 2651.98699,1986.06178 2641.54031,1989.61265 C2616.01559,1998.28097 2590.25872,2006.58955 2564.59471,2014.82851 C2518.84405,2029.51938 2469.08304,2041.59932 2421.26626,2044.91811 C2374.61023,2048.15567 2328.67386,2047.05328 2282.00622,2048.05704 C2235.44305,2049.055 2194.20188,2043.33414 2148.5731,2032.82657 C2097.04195,2020.96711 2042.8527,2015.06639 1991.98898,2001.38508 C1947.54416,1989.42699 1918.8216,1941.12464 1891.55576,1907.12443 C1853.6169,1859.80264 1822.47419,1808.21052 1795.99186,1753.68834 M1730.34608,1494.46866 C1721.33872,1501.76188 1683.97443,1486.18329 1676.18585,1480.15492 C1665.40256,1471.80573 1663.24358,1441.83797 1678.68145,1434.05157 C1693.41127,1426.6249 1741.71555,1451.07488 1719.56859,1408.505 C1714.5832,1398.91415 1707.16606,1399.26808 1711.64653,1387.54787 C1714.21757,1380.83486 1731.11217,1370.30408 1737.2583,1367.98905 C1762.70758,1358.42141 1765.72551,1386.225 1787.55326,1395.28785 C1809.6654,1404.46675 1835.14369,1398.22951 1857.92326,1407.27496 C1866.62882,1410.72719 1871.04545,1417.32416 1878.3233,1408.09885 C1881.92741,1403.52101 1880.21531,1391.39465 1878.83983,1386.20759 C1872.13074,1361.03235 1837.22722,1345.19266 1818.104,1330.57722 C1866.5998,1306.0228 1911.81652,1282.80286 1954.6421,1249.02893 C1957.83994,1257.75527 1966.87052,1271.68607 1960.77082,1281.05643 C1957.32922,1286.33053 1939.37834,1292.44592 1933.85901,1297.48213 C1917.1153,1312.77642 1894.54467,1347.29302 1912.28081,1370.23446 C1933.80097,1398.07285 1985.1406,1349.68928 1999.82979,1333.09532 C2026.17284,1359.55862 2024.35628,1419.9409 2004.03168,1448.29568 C2000.74678,1424.75663 1956.24973,1387.94241 1936.5055,1415.51972 C1908.58965,1454.53292 1979.72574,1461.76812 2000.44499,1456.9698 C1988.80855,1475.72213 1966.82409,1505.52743 1943.19718,1508.82882 C1920.82968,1511.96194 1910.44684,1482.61501 1897.16795,1468.12721 C1885.63598,1455.54829 1860.54073,1426.09111 1848.54446,1451.33017 C1836.66426,1476.34296 1863.04793,1504.54108 1876.00182,1522.99751 C1858.02772,1525.32414 1840.77329,1533.5689 1822.32329,1531.66002 C1813.51326,1530.74909 1792.57347,1529.6641 1785.19115,1526.94292 C1762.42319,1518.55311 1767.4318,1483.49692 1773.10783,1464.70398 C1778.88252,1445.61512 1784.87775,1412.95519 1751.13498,1426.79316 C1715.27385,1441.49564 1749.41708,1479.01772 1730.34608,1494.46866 M2013.18413,1171.33324 C2028.32021,1146.25663 2040.62988,1119.21892 2049.8926,1091.44435 C2059.08568,1063.87285 2058.68523,1041.54643 2085.84659,1028.02758 C2134.86474,1003.63562 2192.15897,976.748768 2228.171,934.022226 C2242.15794,917.428268 2248.64649,891.539372 2268.33268,881.432143 C2292.57478,868.992476 2325.31351,862.766841 2351.33735,853.495111 C2381.79522,842.645216 2413.8143,836.97658 2443.69761,824.55432 C2464.84052,815.764164 2493.81265,798.880101 2516.60963,797.01183 C2515.10066,819.477497 2510.69564,842.563986 2514.03278,865.087674 C2516.27881,880.265924 2535.43106,900.729872 2533.71897,913.088309 C2532.89484,919.018039 2523.96873,921.478122 2520.51552,926.438903 C2516.2498,932.577507 2516.06408,941.13558 2514.59574,948.115486 C2509.74964,971.242591 2506.37768,994.421914 2498.33954,1016.80635 C2464.68963,1110.47518 2373.92539,1173.85134 2312.75428,1248.82006 C2296.40523,1268.86046 2281.54192,1289.82918 2267.79873,1311.75526 C2259.1396,1325.57002 2251.1595,1350.79167 2234.73499,1357.19137 C2215.00818,1364.87913 2176.53538,1352.68315 2156.19337,1351.44151 C2136.20539,1350.22307 2119.99563,1357.29581 2100.68088,1355.93232 C2080.65808,1354.51081 2065.88183,1363.55046 2056.50303,1342.69197 C2048.97562,1325.94715 2048.40105,1305.08866 2042.49868,1287.57798 C2029.96846,1250.38082 1988.69247,1211.92461 2013.18413,1171.33324 M2161.06849,693.485257 C2132.91469,694.390382 2107.52345,681.341497 2084.1345,667.126393 C2132.02672,647.799653 2181.02745,650.677486 2229.14022,665.107268 C2210.32459,682.002934 2186.50616,692.667164 2161.06849,693.485257 M2049.16714,564.481736 C2060.95448,521.105361 2094.86556,471.062393 2127.12839,440.39258 C2132.58388,467.035747 2152.83302,462.132986 2171.53839,470.963757 C2187.5218,478.506466 2189.51248,493.823966 2208.27588,498.43082 C2222.28023,501.865653 2245.76785,503.884778 2256.92838,492.385049 C2275.26811,473.481861 2254.09037,461.900903 2239.22707,453.685153 C2250.67198,438.315434 2262.85397,423.380872 2275.4016,408.881466 C2284.07814,398.855466 2300.93792,384.889851 2301.50669,370.274403 C2302.37724,347.814539 2284.43797,357.347361 2271.07203,364.275049 C2264.75179,367.553226 2255.93015,375.22358 2248.77417,376.505841 C2241.91418,377.73008 2235.15866,373.187049 2228.98932,374.904466 C2214.04476,379.064559 2186.20436,428.788414 2164.51589,405.748341 C2155.51434,396.186507 2174.75944,365.980861 2180.29038,358.084226 C2198.9261,331.481674 2234.99036,340.654768 2264.11338,338.368747 C2295.92352,335.868049 2327.77428,329.358111 2359.57862,327.663903 C2395.14376,325.772424 2410.87762,355.363049 2435.81036,377.619841 C2459.50691,398.774236 2495.31581,422.01158 2525.94199,431.799695 C2555.24493,441.158455 2568.77338,434.184351 2569.93993,470.383549 C2572.51677,550.382674 2661.83008,509.216893 2712.81568,517.281789 C2742.59452,521.987278 2747.48705,539.712643 2722.62976,557.832549 C2709.91963,567.098476 2695.02731,570.492695 2679.93766,572.981789 C2660.77381,576.143924 2653.32184,580.507091 2637.00181,591.426611 C2583.29426,627.353111 2494.77607,646.685653 2432.36296,630.02207 C2397.87731,620.814164 2362.55592,603.756039 2333.69987,582.804716 C2308.79615,564.725424 2285.94694,542.619486 2257.23018,530.493132 C2222.44273,515.808059 2189.3906,527.174341 2153.40759,526.890039 C2108.03418,526.524507 2083.64118,534.978143 2049.16714,564.481736 M2565.12285,824.386059 C2570.056,810.031705 2600.49066,733.090278 2622.64343,742.466445 C2628.27302,744.851101 2638.72551,775.712382 2642.89838,781.340403 C2656.33397,799.437101 2675.48041,813.13582 2694.42372,824.867632 C2662.97341,851.01182 2618.36609,857.539164 2583.26525,877.631778 C2544.89691,899.586861 2557.83339,845.569466 2565.12285,824.386059 M2451.14377,1515.64047 C2432.93753,1513.98687 2414.70807,1512.58857 2396.47281,1511.2831 C2380.23403,1510.12268 2361.83046,1504.0363 2346.08499,1503.94347 C2332.53333,1503.86224 2323.28801,1513.30803 2310.42119,1504.866 C2299.56825,1497.74684 2295.84227,1479.67335 2290.61312,1468.82926 C2316.29454,1470.25657 2366.96094,1491.74749 2387.67438,1468.20263 C2402.11402,1451.78274 2389.12531,1426.82217 2373.35083,1417.10368 C2343.80413,1398.89094 2320.4442,1414.59138 2291.9886,1424.13001 C2292.26138,1389.39293 2309.85242,1373.06587 2331.64536,1349.23672 C2354.99369,1323.71915 2379.83937,1297.44152 2399.97245,1269.28981 C2416.95411,1283.1916 2458.14885,1318.0099 2478.46764,1290.64148 C2498.93733,1263.06998 2458.15465,1238.10941 2438.85731,1227.60184 C2454.88136,1205.44368 2470.8996,1183.27973 2486.91204,1161.11577 C2492.47199,1193.06204 2491.03267,1225.03152 2504.54371,1255.17334 C2516.89981,1282.73324 2534.13683,1311.3201 2557.29364,1331.01817 C2535.51812,1344.21791 2513.74259,1381.54852 2536.56859,1403.19029 C2549.44702,1415.40367 2561.17052,1410.64016 2574.23467,1402.15752 C2591.77349,1390.76803 2595.94635,1384.2755 2615.73121,1394.12163 C2624.41936,1398.43838 2638.88801,1404.9019 2636.72903,1415.18319 C2634.94149,1423.70646 2610.711,1438.84989 2604.32111,1444.85505 C2575.11103,1472.32211 2542.28524,1493.65057 2508.4322,1514.91521 C2503.2727,1497.68302 2498.15963,1445.74857 2471.65989,1448.31889 C2446.00748,1450.80799 2451.14377,1498.16459 2451.14377,1515.64047 M2882.55101,831.290539 C3080.9915,779.321278 3277.13371,725.112414 3479.11446,687.213205 C3528.1326,678.016903 3577.52799,671.060205 3626.51711,661.805882 C3674.81559,652.679205 3724.04267,649.725945 3772.18445,640.645684 C3869.14125,622.36332 3966.38242,609.854028 4064.90042,601.098684 C4161.06791,592.546414 4255.58714,589.08257 4351.36578,605.270382 C4391.17344,612.000799 4433.52892,609.430476 4472.19324,619.763986 C4491.71693,624.980059 4513.66656,629.517289 4531.81476,638.504716 C4552.03489,648.513309 4569.23709,665.25232 4588.23264,677.471507 C4626.63579,702.176778 4650.47163,728.204924 4675.25348,766.405841 C4701.45143,806.799945 4703.69747,856.181476 4704.79437,903.921018 C4705.87966,951.353049 4693.03605,997.398382 4679.08393,1042.27169 C4664.81841,1088.16037 4658.48656,1139.03304 4637.70347,1182.49064 C4632.78773,1192.76613 4612.66626,1232.7715 4595.80648,1227.74109 C4584.99997,1224.51513 4586.02723,1206.80137 4585.34239,1197.56446 C4583.21243,1168.89636 4579.85788,1097.57135 4531.3969,1128.59509 C4512.6393,1140.6054 4498.37378,1163.32636 4484.36943,1180.10599 C4466.97571,1200.93547 4449.54136,1221.73013 4431.97933,1242.41456 C4401.37056,1278.4571 4371.1042,1329.47482 4327.48932,1350.8613 C4330.7452,1329.25434 4384.33086,1114.4264 4317.3038,1138.96922 C4305.13342,1143.42522 4294.51843,1160.47754 4286.55574,1170.17282 C4271.54735,1188.45518 4257.22379,1207.27134 4243.12077,1226.25576 C4218.17642,1259.83241 4193.75441,1293.7688 4169.5007,1327.84443 C4146.87203,1359.63985 4121.22543,1389.43935 4093.40824,1416.86 C4077.97037,1432.07886 4015.89968,1491.95056 4010.86787,1436.3666 C4009.85222,1425.15698 4015.19163,1412.00946 4017.25775,1401.07253 C4021.43642,1378.984 4024.00166,1356.54734 4027.87274,1334.40079 C4035.80061,1289.0343 4046.82766,1244.49171 4058.63821,1200.01293 C4070.22242,1156.39287 4078.50431,1113.22537 4078.9512,1068.01554 C4079.39809,1023.28148 4080.80839,974.94432 4056.64754,935.304486 C4038.74889,905.951747 4007.81511,872.647789 3977.39787,857.086601 C3936.1567,836.00183 3895.46107,837.133236 3850.7783,830.878591 C3762.2485,818.491143 3668.2632,831.290539 3580.38922,844.815195 C3497.87205,857.515955 3419.32463,882.696997 3339.00707,901.861278 C3248.68392,923.416018 3162.57426,957.218955 3075.43154,985.579539 C2979.3395,1016.84697 2883.29389,1050.23215 2789.02421,1086.8491 C2793.64977,1070.53944 2793.16226,1053.95129 2796.6793,1037.63003 C2799.45928,1024.732 2806.79517,1019.4405 2812.36674,1008.28889 C2824.11925,984.767247 2818.5709,950.407309 2787.01613,951.184789 C2760.73112,951.82882 2730.84201,973.244309 2709.79195,986.815382 C2688.32983,1000.65335 2642.21354,1022.18488 2629.40475,1045.96182 C2594.95972,1109.90658 2730.56343,1079.01629 2706.9075,1131.07838 C2700.40735,1145.37472 2691.8933,1144.20269 2693.57058,1163.04206 C2695.42776,1183.99338 2694.71971,1193.86273 2687.61597,1214.65739 C2675.06254,1251.40779 2669.37491,1290.18891 2656.20629,1326.6434 C2620.45543,1283.4585 2555.22752,1234.30325 2547.61885,1175.34248 C2539.50527,1112.44789 2570.93236,1052.75606 2586.1613,993.60382 C2592.24359,969.971934 2587.34526,937.985049 2596.89236,916.325872 C2607.80334,891.579986 2649.99051,892.25883 2672.89195,887.52433 C2743.51151,872.914684 2812.7846,849.561299 2882.55101,831.290539 M5094.50195,1683.57016 C5090.86302,1657.18809 5070.03931,1639.72962 5045.25746,1634.44973 C5020.84705,1629.25106 5032.72145,1626.51828 5033.55138,1600.14201 C5034.30006,1576.56814 5029.73254,1547.73759 5008.04987,1534.26515 C4988.42172,1522.07498 4962.53717,1526.30469 4940.61075,1525.34735 C4955.8513,1481.34435 4970.97577,1413.66305 4903.4612,1425.53411 C4848.91792,1435.12496 4808.18748,1471.71869 4764.1141,1503.78101 C4719.05989,1536.56858 4680.12279,1567.45307 4642.1317,1608.24752 C4603.9723,1649.23343 4567.89063,1692.19206 4535.72647,1738.06913 C4503.5565,1783.95201 4475.75092,1832.53285 4453.31957,1883.88709 C4432.21148,1932.21844 4413.14629,1978.86719 4424.15593,2032.33339 C4429.86678,2060.05575 4443.12826,2085.79379 4447.79444,2113.69601 C4452.61732,2142.44533 4446.24485,2171.51957 4438.1893,2199.07947 C4422.79205,2251.75078 4395.83962,2298.0456 4365.32951,2343.21482 C4339.503,2381.44475 4317.02523,2419.40778 4285.5459,2453.11208 C4246.26058,2495.18299 4207.8168,2537.20167 4166.73233,2577.67121 C4134.26637,2609.64068 4094.85917,2642.13235 4057.46006,2668.31135 C4034.77335,2684.19165 4007.56555,2691.40944 3982.97523,2703.61703 C3960.02155,2715.01812 3940.56171,2726.72092 3915.62897,2733.71824 C3890.42345,2740.79098 3863.99335,2753.103 3837.45298,2752.53439 C3810.76172,2751.95999 3781.88245,2738.9111 3756.40996,2731.21174 C3703.2944,2715.15737 3662.68003,2699.59038 3624.68314,2657.79217 C3544.19147,2569.24658 3491.15136,2456.7848 3431.61689,2353.28724 C3377.39862,2259.02079 3313.45914,2153.58533 3225.53872,2086.50744 C3183.50244,2054.42773 3133.90973,2031.53851 3085.41973,2011.16739 C3061.57228,2001.14139 3035.57746,1997.56151 3010.79561,1990.5758 C2988.64285,1984.32696 2965.21907,1984.4604 2944.49402,1975.8095 C2919.54387,1965.40056 2895.87053,1946.54959 2868.24486,1943.46868 C2859.36519,1942.48233 2852.1976,1945.87075 2843.60811,1942.9523 C2833.09759,1939.37822 2823.34155,1928.04094 2812.32031,1923.1904 C2761.74097,1900.93941 2732.8617,1878.9031 2709.69909,1827.77514 C2685.6369,1774.64547 2669.8334,1718.37686 2672.16069,1659.61336 C2673.30402,1630.77701 2677.41305,1601.68536 2682.61317,1573.31317 C2687.48829,1546.70482 2688.03384,1518.44867 2694.30184,1492.49596 C2696.99477,1481.34435 2702.54892,1471.01084 2704.93424,1459.73739 C2707.13965,1449.33426 2705.27086,1437.07446 2709.50757,1427.22252 C2713.21033,1418.60642 2720.17479,1415.77501 2724.91642,1408.42957 C2733.38984,1395.32847 2726.99415,1387.37961 2725.54322,1373.78533 C2722.91994,1349.08006 2734.01664,1322.21641 2738.78148,1298.09715 C2744.72448,1267.96693 2753.77827,1238.78826 2760.64406,1208.91333 C2764.95042,1190.20161 2764.67184,1169.33732 2781.39813,1157.0195 C2799.37223,1143.77334 2833.44581,1142.35183 2854.91374,1136.77603 C2913.57765,1121.52815 2971.85271,1105.30553 3030.52243,1090.15049 C3058.52533,1082.92109 3085.78536,1073.98008 3112.57529,1063.12438 C3128.32076,1056.74789 3134.40885,1058.92367 3150.38066,1057.3339 C3162.41756,1056.13867 3172.35351,1048.76423 3183.74039,1045.68912 C3207.40793,1039.30683 3221.07567,1052.025 3241.40607,1061.44178 C3264.49903,1072.13502 3294.44038,1076.83471 3319.52402,1080.432 C3370.80561,1087.78904 3433.62497,1079.29479 3484.61057,1070.4234 C3541.99767,1060.43222 3600.04638,1043.89628 3649.9583,1013.93432 C3659.78978,1008.0336 3667.34622,1001.21035 3678.50675,1003.94893 C3687.4909,1006.14792 3695.22144,1018.40192 3702.6734,1023.64701 C3725.22663,1039.52731 3752.73041,1043.80925 3778.44665,1033.15662 C3799.36323,1024.49991 3813.32115,1008.90972 3822.68254,988.608226 C3829.83851,973.093455 3832.68233,949.258497 3850.38946,941.924664 C3868.01533,934.625643 3904.99077,943.270747 3923.62068,946.856434 C3947.39268,951.422674 3966.3418,965.185216 3984.39714,981.233778 C4024.39632,1016.79475 4029.13795,1063.64657 4021.25071,1113.95063 C4002.74847,1232.06944 3955.47725,1345.17526 3958.10053,1466.61286 C3959.09296,1513.00632 3978.33226,1556.27826 4033.71127,1550.8185 C4060.98291,1548.13213 4077.0766,1528.58491 4097.44182,1512.86127 C4120.26201,1495.24614 4140.4125,1476.99279 4159.58796,1455.38583 C4200.05143,1409.82207 4234.79825,1359.86613 4271.54735,1311.36652 C4275.84209,1355.56679 4252.74913,1399.48276 4281.19892,1440.31782 C4304.51243,1473.78424 4337.26857,1450.59331 4359.39812,1428.48737 C4392.39802,1395.54894 4422.66437,1358.52585 4452.33875,1322.59355 C4476.15718,1293.73979 4500.55598,1246.53404 4532.87684,1226.9288 C4531.81476,1263.56315 4556.34705,1326.28367 4602.29503,1309.87538 C4644.70275,1294.72614 4672.81592,1234.91247 4690.99895,1197.44841 C4701.96796,1174.8435 4711.78784,1151.69899 4722.34479,1128.9026 C4734.31785,1103.06012 4736.4362,1080.7163 4742.0658,1053.4233 C4753.0174,1000.26461 4762.58192,947.778966 4770.81738,893.987851 C4779.33723,838.276247 4770.13255,789.689601 4750.99191,737.476653 C4742.93636,715.52157 4741.34034,694.668882 4727.32437,674.982414 C4712.72804,654.495257 4693.66285,634.135747 4675.20125,617.07182 C4636.46148,581.267164 4586.12589,568.682445 4539.39441,547.319174 C4513.80005,535.622174 4491.96648,534.560393 4464.83994,530.858664 C4439.07146,527.348403 4414.48694,520.606382 4388.34703,519.144257 C4321.44185,515.401914 4255.2157,502.19057 4187.9565,506.310049 C4156.69771,508.230539 4125.28222,510.052393 4094.00022,511.201205 C4068.98042,512.117934 4033.64743,519.579414 4009.58525,512.413841 C4022.13287,486.165216 4048.23796,464.685903 4047.23972,433.325643 C4046.28791,403.311466 4021.27972,388.168028 3995.36035,380.387434 C3960.59032,369.955289 3921.73447,363.91532 3885.41485,365.284611 C3855.13109,366.42182 3813.18186,378.739643 3784.85395,362.812924 C3803.58833,337.393997 3824.31919,310.089393 3828.59072,277.824007 C3834.22612,235.236716 3799.90878,212.225653 3764.73829,196.513611 C3728.41286,180.285184 3685.04173,175.893007 3646.09883,170.125736 C3606.35502,164.23082 3567.61525,160.790184 3527.73795,165.559497 C3447.94853,175.109726 3368.15331,184.97907 3288.15496,196.264122 C3213.45539,206.806507 3130.17795,225.286143 3055.57705,206.353945 C2976.61756,186.307747 3004.34189,117.564664 2971.61476,61.2264344 C2935.09201,-1.64494062 2843.80544,-2.90979478 2780.84678,1.53460105 C2703.69805,6.9827573 2613.31686,39.1437052 2546.21436,76.9094656 C2532.44215,84.661049 2517.81099,90.7648406 2504.35799,98.7891219 C2490.69025,106.935247 2480.41188,118.904945 2464.57936,123.56982 C2427.4298,134.506747 2384.30243,112.690914 2346.5725,111.779986 C2264.97813,109.818882 2168.9093,149.986705 2110.88961,207.653611 C2073.75746,244.560664 2024.29824,356.506059 2087.54128,394.190591 C2060.14196,422.939914 2040.25844,457.665382 2024.85539,494.056049 C2017.14226,512.274591 2010.61889,530.986309 2004.54241,549.808268 C2000.18962,563.309716 1997.88555,585.502684 1987.83352,596.32357 C1977.99623,606.918174 1964.14277,613.352684 1954.04432,624.956851 C1940.81186,640.169914 1928.5312,656.067622 1918.21221,673.415851 C1901.18992,702.008518 1886.54136,735.422716 1882.25822,768.668653 C1878.3233,799.146997 1884.76542,829.346841 1909.46021,849.630924 C1923.53421,861.194476 1941.20071,867.72182 1959.26185,869.038893 C1978.96545,870.477809 1999.29005,860.434403 2018.41908,862.621789 C2034.12972,864.414632 2032.44085,872.48533 2042.40001,883.242393 C2053.74627,895.484789 2071.13999,901.768445 2087.07698,905.191674 C2101.85323,908.365414 2117.33172,908.997841 2132.1486,905.702257 C2151.2254,901.460934 2167.55124,887.437299 2187.24323,886.189851 C2157.85904,913.082507 2126.75115,938.124299 2093.66419,960.340476 C2057.61154,984.55257 2023.36964,992.443403 1981.51909,1001.38441 C1898.84522,1019.04596 1820.15271,1045.61369 1735.70291,1054.87962 C1695.55864,1059.2834 1656.21528,1068.13738 1615.80985,1071.39235 C1566.29839,1075.37838 1516.7347,1075.30876 1467.11297,1074.52548 C1428.77366,1073.92206 1389.79593,1074.46746 1351.99056,1067.29028 C1311.34717,1059.56771 1269.28188,1062.09741 1227.83177,1062.27728 C1185.30218,1062.45714 1143.00473,1061.72608 1100.64925,1057.47315 C1060.33667,1053.4233 1021.09198,1032.47778 982.55534,1020.25859 C903.421742,995.158778 830.457488,954.143851 765.879596,902.528518 C734.68465,877.596966 700.251233,855.740518 672.689409,826.596653 C647.675415,800.150757 623.978864,768.558414 601.541717,739.78008 C552.5642,676.955122 538.037512,596.364184 499.535694,528.421789 C479.49548,493.058091 436.281048,401.303945 393.594754,467.459299 C368.853534,505.81107 365.133356,555.169393 355.534018,598.661809 C335.830419,562.770122 316.904518,526.315632 296.237503,490.963539 C286.498876,474.299955 270.074374,444.047893 246.192104,452.304257 C223.313875,460.218299 212.606029,505.265674 207.620641,525.416309 C197.916836,564.620986 197.586025,605.711341 180.61017,643.065153 C167.337083,615.516861 157.714531,581.093101 127.291478,567.585851 C90.0316536,551.049914 53.1664817,568.572205 34.5597845,602.334528 C-11.3185505,685.577018 -3.37327021,793.623414 12.1516566,883.683351 C42.499261,1059.73597 125.666439,1231.87217 260.086188,1352.14356 C292.105261,1380.79425 329.34187,1402.69131 364.297621,1427.41979 C378.342602,1437.35876 390.919243,1446.17212 407.912509,1450.0189 C429.392043,1454.87525 439.171296,1467.58761 459.542322,1476.59825 C535.605757,1510.25033 621.123438,1513.37185 699.067276,1539.44061 C717.279321,1545.5328 736.193615,1541.79046 754.173511,1547.85943 C773.981576,1554.54343 787.568064,1555.51238 807.968108,1558.80797 C849.870901,1565.579 894.42599,1576.99169 937.443095,1577.79818 C980.477612,1578.59887 1022.14826,1584.16307 1065.49617,1586.53612 C1110.15573,1588.9788 1151.69869,1586.43168 1196.19574,1581.01834 C1292.75208,1569.26912 1397.47424,1566.60597 1486.68889,1525.13267 C1521.4241,1508.98548 1550.11184,1488.27204 1575.97898,1459.94627 C1583.18139,1452.06124 1603.36089,1430.91844 1595.46204,1418.17127 C1586.84933,1404.28108 1567.82477,1417.34737 1556.48431,1422.33136 C1468.00674,1461.21112 1370.85262,1471.46921 1275.28291,1479.33103 C1230.59434,1483.00375 1185.27896,1489.52529 1140.48012,1490.70311 C1117.38715,1491.31233 1097.10899,1488.95088 1074.80533,1484.29181 C1049.26319,1478.95389 1023.48311,1481.28053 997.720437,1478.33307 C952.962218,1473.21563 908.534811,1465.15074 863.915881,1459.67937 C826.476142,1455.08992 784.608171,1461.21692 750.702892,1444.11238 C719.10749,1428.17986 681.226668,1425.44708 647.147278,1414.33609 C606.991402,1401.24079 565.51228,1394.06941 526.052849,1378.09628 C506.401484,1370.14162 486.651455,1366.14979 467.023305,1359.63405 C451.17337,1354.37156 437.743583,1341.47933 421.841415,1334.32536 C384.523554,1317.54574 350.5022,1286.60323 321.797046,1257.79588 C257.55577,1193.33474 203.470988,1116.48614 160.999431,1035.73275 C137.482794,991.016091 124.0414,935.786059 108.092802,887.808632 C93.2469095,843.144195 80.1885599,793.25208 72.4406058,746.847018 C69.6838431,730.351695 50.2007855,646.90033 77.3505452,646.221486 C114.859929,645.293153 138.910507,711.785028 149.339776,737.911809 C165.038814,777.23833 184.655357,831.696684 217.208371,860.643278 C247.643032,887.704195 265.413994,836.233914 264.949698,812.230695 C264.613082,794.795434 258.124534,787.101872 248.635466,773.316122 C235.234698,753.832726 230.626551,738.329559 229.541257,714.163882 C227.063073,658.864226 237.295015,604.063549 246.737653,549.854684 C269.44177,589.802028 293.585207,628.316257 309.330675,671.698434 C317.554534,694.349768 329.806167,760.928674 366.392761,749.91632 C388.916963,743.139486 397.964949,709.336549 401.238242,689.151101 C408.550917,644.11533 403.815089,598.673414 416.385927,554.13082 C432.166217,561.67933 439.792293,592.407164 446.698709,607.092236 C460.534756,636.473986 470.801521,665.954372 480.447288,696.89108 C498.955323,756.292809 535.066012,805.877414 570.973572,855.891372 C607.310606,906.502945 650.617897,949.595018 700.349896,987.122893 C748.863116,1023.72243 805.455101,1064.5749 862.784158,1085.70029 C892.255402,1096.56179 922.782921,1103.8376 952.132287,1115.19808 C965.370552,1120.32132 978.515957,1125.79268 991.957352,1130.37633 C1010.13457,1136.56715 1027.96938,1136.55555 1045.90285,1141.19141 C1074.6022,1148.61228 1098.54831,1155.58058 1128.73341,1156.4741 C1158.04795,1157.34441 1187.44955,1156.70038 1216.64222,1159.06763 C1276.58294,1163.92978 1339.39651,1164.93354 1399.65063,1164.91033 C1467.57727,1164.88712 1536.86197,1166.2216 1603.6975,1152.75497 C1671.8853,1139.02143 1741.37894,1129.55824 1808.63234,1112.72639 C1885.45026,1093.49829 1961.60075,1070.31897 2038.0066,1049.43147 C2004.8442,1109.48883 1945.04857,1171.86123 1884.1038,1203.2563 C1853.73298,1218.89872 1822.36972,1237.14627 1790.64084,1249.46989 C1756.01009,1262.92492 1721.75079,1272.59119 1689.25001,1291.21008 C1654.00987,1311.38973 1641.79887,1330.64684 1624.92167,1366.32385 C1608.03288,1402.02987 1596.39063,1436.33759 1600.82467,1476.81873 C1604.25466,1508.06875 1617.24336,1541.47714 1640.27829,1563.55407 C1652.12367,1574.90875 1666.74322,1583.32757 1682.49449,1587.98084 C1700.32349,1593.24913 1706.78882,1589.48938 1711.36214,1607.66731 C1714.39168,1619.69503 1710.93267,1636.77636 1712.91754,1649.87166 C1715.6685,1667.98577 1720.15477,1685.83878 1724.77452,1703.54674 C1735.32567,1744.02207 1746.77059,1784.71208 1765.0929,1822.46624 C1780.14192,1853.45516 1799.47408,1881.97821 1820.09467,1909.48588 C1827.95289,1919.97605 1843.04254,1932.74063 1847.78417,1944.97723 C1851.1155,1953.57011 1846.82656,1975.46137 1836.59462,1980.64263 C1831.18556,1983.38122 1803.91392,1972.10777 1800.00803,1971.17943 C1783.97237,1967.34426 1768.88853,1964.26335 1753.62477,1958.81519 C1716.95692,1945.7315 1672.96479,1944.896 1633.95225,1940.64307 C1599.64071,1936.91233 1564.71978,1932.25326 1530.14707,1933.55292 C1514.05338,1934.16214 1498.18023,1939.87139 1482.43477,1940.34716 C1465.62142,1940.85775 1450.55498,1936.90653 1433.42243,1937.88708 C1417.70018,1938.79221 1412.14022,1938.63555 1397.03896,1943.39906 C1380.9917,1948.45848 1373.27277,1943.13797 1357.35899,1941.54819 C1338.84515,1939.69733 1322.0318,1948.47588 1303.7327,1948.63834 C1286.10683,1948.795 1268.82919,1947.04277 1250.97117,1947.72741 C1218.40655,1948.96326 1184.67538,1955.85033 1152.87104,1955.33394 C1134.0438,1955.02063 1121.34528,1957.82304 1103.06359,1961.6118 C1082.61712,1965.84732 1061.48001,1958.89062 1041.41077,1964.6753 C1013.44269,1972.73439 983.565186,1972.79241 954.018493,1978.8846 C921.749861,1985.53959 890.676792,1995.80348 858.054133,2000.72944 C788.252902,2011.26603 718.950789,2032.97162 651.958554,2055.14718 C364.07708,2150.46381 126.119128,2406.75924 72.0633646,2708.64163 C56.4513821,2795.84694 34.4379066,2894.00659 44.4202894,2982.68563 C53.9790013,3067.67455 87.1646204,3154.31706 131.609439,3226.93593 C175.056019,3297.91862 228.676504,3365.43747 287.735067,3423.97468 C317.020592,3453.00831 344.930638,3484.14229 377.355971,3509.75849 C390.872814,3520.44012 402.782029,3534.16205 416.664505,3544.10682 C433.263118,3555.98949 454.568541,3561.6059 473.273902,3569.24725 C404.59859,3608.02837 339.063086,3657.47953 282.308597,3712.30341 C233.168576,3759.76446 169.391597,3827.67204 176.460517,3902.01993 C186.210751,4004.682 326.294922,3971.52889 392.265704,3957.33119 C392.265704,4006.49225 392.660357,4065.52264 458.886502,4059.8308 C486.593418,4057.44614 519.750019,4045.76655 543.829616,4032.00981 C565.587728,4019.58755 579.609493,4014.41209 604.507413,4008.67963 C604.507413,4032.34633 599.156392,4066.38715 618.355068,4084.69853 C639.201997,4104.57647 677.721227,4103.18397 703.054425,4095.69928 C761.254038,4078.50771 823.945724,4059.81919 861.80333,4008.15744 C880.206898,3983.04603 897.316238,3955.41071 908.459363,3926.21462 C913.746543,3912.35925 913.909047,3894.25675 923.032481,3882.40309 C931.52331,3871.37913 947.367441,3863.93506 957.756083,3854.76777 C980.309304,3834.86662 999.171365,3811.05487 1018.7705,3788.37453 C1042.21749,3761.24399 1068.43865,3736.35305 1089.85435,3707.51089 C1128.53608,3655.443 1156.01665,3589.27604 1142.56945,3523.57905 C1129.99862,3462.19301 1079.21615,3405.18174 1019.23479,3391.08848 C990.935899,3384.43929 973.037254,3361.57328 950.867078,3344.71242 C926.828108,3326.42426 899.544863,3308.19411 873.869245,3292.39504 C846.243581,3275.39493 817.248242,3256.56137 791.636465,3236.67183 C765.937633,3216.70686 746.263053,3187.31931 726.147391,3161.99902 C684.273617,3109.3161 636.497468,3054.4458 622.823925,2986.84573 C617.345222,2959.7616 609.556642,2930.31603 618.273816,2903.33634 C627.495912,2874.79589 647.808901,2851.85446 666.334346,2829.06967 C706.896482,2779.17176 765.136721,2749.58693 823.144812,2724.86426 C854.542888,2711.47885 885.62176,2700.58834 917.437703,2690.42309 C928.801369,2686.79099 937.681047,2679.54418 949.503206,2676.66635 C966.026371,2672.64551 983.646438,2671.11956 1000.39014,2667.30759 C1032.34538,2660.03758 1060.35409,2651.96688 1093.19148,2651.70579 C1130.74149,2651.40408 1168.22186,2648.52044 1205.56293,2644.69687 C1238.18559,2641.36067 1266.1885,2646.12418 1298.31204,2646.85525 C1312.15389,2647.16856 1326.26271,2644.56342 1340.09876,2645.29449 C1357.04559,2646.18801 1373.0058,2650.78906 1390.24862,2651.11978 C1418.31537,2651.64197 1444.43787,2654.54881 1471.90103,2650.74844 C1485.53975,2648.85697 1497.14137,2652.90102 1510.90777,2651.55493 C1514.26812,2651.23002 1517.524,2646.89586 1520.68703,2646.82043 C1526.94343,2646.68118 1530.40244,2649.86073 1536.78652,2650.59759 C1603.35508,2658.28535 1669.82499,2644.72008 1736.32391,2647.66754 C1801.3719,2650.55117 1869.10701,2646.55354 1934.32331,2642.78799 C1998.87798,2639.05725 2071.72036,2632.46028 2131.73654,2606.36251 C2154.07502,2596.64402 2168.13741,2572.57698 2189.63436,2588.96786 C2216.74929,2609.64068 2238.69312,2634.81592 2268.59965,2652.75597 C2294.22303,2668.12568 2325.90549,2672.94141 2354.50037,2680.28105 C2367.9882,2683.74489 2384.40109,2691.06132 2398.38803,2688.69987 C2416.27507,2685.67118 2414.42369,2676.92164 2426.9597,2693.99717 C2445.52577,2719.30586 2457.4524,2748.81526 2477.27207,2773.7178 C2498.24088,2800.05926 2521.67627,2826.27887 2545.90096,2849.68448 C2590.68239,2892.9274 2633.26422,2938.89151 2677.51751,2983.144 C2700.32029,3005.94618 2714.48715,3034.57947 2738.26495,3056.29086 C2760.63246,3076.70839 2782.18744,3098.75631 2805.05986,3118.51821 C2857.63568,3163.96592 2915.38841,3204.17436 2970.84287,3246.03639 C2997.56315,3266.21024 3020.91728,3289.36055 3050.1912,3306.05314 C3078.51912,3322.20614 3108.76806,3336.99565 3135.68567,3354.65139 C3188.48783,3389.27242 3250.07681,3410.86198 3310.73139,3431.10544 C3343.23218,3441.95534 3376.19145,3450.94277 3409.92842,3457.00594 C3440.76354,3462.54113 3469.91558,3464.60667 3500.62301,3468.28519 C3528.9045,3471.67941 3557.48777,3472.78181 3585.56032,3476.53576 C3602.12411,3478.75215 3606.55815,3476.11221 3621.03841,3473.94223 C3634.03292,3471.99273 3643.69029,3478.79857 3657.17231,3479.48322 C3718.70906,3482.60474 3781.73155,3487.5075 3843.86608,3482.12897 C3876.09989,3479.33236 3904.79925,3481.40371 3935.82588,3471.03538 C3966.63198,3460.73088 3999.71894,3463.91042 4030.85004,3452.81104 C4090.94747,3431.39555 4153.94095,3419.63473 4212.39012,3392.24309 C4236.9166,3380.74916 4268.36691,3372.92796 4290.04958,3356.44424 C4299.0047,3349.63259 4304.82583,3341.51548 4313.94346,3335.95128 C4325.8933,3328.66386 4342.54414,3321.18498 4355.74178,3315.70201 C4379.7053,3305.73983 4395.95569,3287.31822 4416.98254,3272.01812 C4444.09748,3252.28524 4470.94544,3232.92368 4494.63039,3208.98429 C4538.26269,3164.87685 4580.53111,3121.50628 4618.42354,3071.74761 C4704.35909,2958.90289 4779.38366,2836.84447 4845.56918,2711.42663 C4917.64547,2574.84559 4946.3158,2431.1686 4959.60049,2278.45777 C4966.19931,2202.67096 4971.70123,2126.59984 4976.79689,2050.69699 C4979.1648,2015.32168 4981.18449,1979.69689 4979.67553,1944.24036 C4979.03712,1929.16655 4974.22004,1908.87086 4979.53044,1894.10456 C4984.60288,1880.02871 4999.60547,1869.35287 5009.11776,1858.32311 C5045.26907,1816.43207 5102.61554,1742.41489 5094.50195,1683.57016" id="Fill-5"></path>
                <path d="M2255.0091,2264.99287 C2236.74482,2254.69418 2262.01998,2225.73598 2241.68958,2218.39634 C2223.28021,2211.75296 2212.50272,2243.50776 2210.57008,2256.00545 C2206.5307,2282.13223 2216.44344,2306.07162 2239.25202,2318.78979 C2251.24249,2325.47379 2265.21202,2329.05948 2276.25648,2337.54212 C2288.21213,2346.73843 2294.1087,2359.44499 2306.92909,2367.86961 C2329.29079,2321.62121 2291.68275,2285.6715 2255.0091,2264.99287" id="Fill-8"></path>
                <path d="M2387.06035,2176.26741 C2352.68497,2184.36132 2346.70715,2279.06873 2384.03081,2277.47315 C2406.04429,2276.53322 2399.86914,2232.2111 2403.31655,2217.10248 C2406.67689,2202.35358 2413.46143,2170.05338 2387.06035,2176.26741" id="Fill-10"></path>
                <path d="M2367.30278,514.899453 C2411.68956,544.339224 2483.6962,468.784495 2460.92244,423.632682 C2442.8729,434.430359 2416.52985,466.394036 2394.25521,464.102214 C2359.52,460.533932 2395.18961,426.835432 2390.41316,410.665026 C2381.39999,380.093849 2356.19448,431.482901 2353.31583,441.079547 C2346.62416,463.405964 2344.6625,499.883661 2367.30278,514.899453" id="Fill-12"></path>
                <path d="M2479.54597,1410.59897 C2478.82631,1393.21013 2473.91637,1375.29329 2461.04374,1362.94066 C2448.17691,1350.58802 2433.11628,1347.65217 2423.40087,1332.07938 C2417.25474,1322.21583 2417.10965,1312.3697 2404.22541,1322.58136 C2396.00155,1329.0971 2393.50015,1347.4781 2393.63944,1357.15018 C2393.84257,1371.696 2399.66949,1385.41793 2409.17017,1396.32584 C2420.23204,1409.03241 2435.86724,1410.91228 2447.66618,1421.06593 C2454.83377,1427.23934 2456.49943,1442.58585 2468.15328,1437.39299 C2475.5356,1434.10321 2477.39859,1417.23075 2479.54597,1410.59897" id="Fill-14"></path>
            </g>
        </g>
    </g>
</svg>